<?xml version="1.0" encoding="UTF-8" standalone="no"?>
<!-- Created with Inkscape (http://www.inkscape.org/) -->

<svg
   xmlns:dc="http://purl.org/dc/elements/1.1/"
   xmlns:cc="http://creativecommons.org/ns#"
   xmlns:rdf="http://www.w3.org/1999/02/22-rdf-syntax-ns#"
   xmlns:svg="http://www.w3.org/2000/svg"
   xmlns="http://www.w3.org/2000/svg"
   xmlns:sodipodi="http://sodipodi.sourceforge.net/DTD/sodipodi-0.dtd"
   xmlns:inkscape="http://www.inkscape.org/namespaces/inkscape"
   width="648.87952"
   height="739.25281"
   id="svg2976"
   version="1.1"
   inkscape:version="0.92.3 (2405546, 2018-03-11)"
   sodipodi:docname="trapframe.svg">
  <defs
     id="defs2978">
    <marker
       inkscape:stockid="Arrow1Lstart"
       orient="auto"
       refY="0"
       refX="0"
       id="Arrow1Lstart"
       style="overflow:visible">
      <path
         id="path3773"
         d="M 0,0 5,-5 -12.5,0 5,5 Z"
         style="fill-rule:evenodd;stroke:#000000;stroke-width:1.00000003pt;marker-start:none"
         transform="matrix(0.8,0,0,0.8,10,0)"
         inkscape:connector-curvature="0" />
    </marker>
    <marker
       inkscape:stockid="Arrow1Lend"
       orient="auto"
       refY="0"
       refX="0"
       id="Arrow1Lend"
       style="overflow:visible">
      <path
         id="path3776"
         d="M 0,0 5,-5 -12.5,0 5,5 Z"
         style="fill-rule:evenodd;stroke:#000000;stroke-width:1.00000003pt;marker-start:none"
         transform="matrix(-0.8,0,0,-0.8,-10,0)"
         inkscape:connector-curvature="0" />
    </marker>
    <inkscape:perspective
       sodipodi:type="inkscape:persp3d"
       inkscape:vp_x="0 : 526.18109 : 1"
       inkscape:vp_y="0 : 1000 : 0"
       inkscape:vp_z="744.09448 : 526.18109 : 1"
       inkscape:persp3d-origin="372.04724 : 350.78739 : 1"
       id="perspective2984" />
  </defs>
  <sodipodi:namedview
     id="base"
     pagecolor="#ffffff"
     bordercolor="#666666"
     borderopacity="1.0"
     inkscape:pageopacity="0.0"
     inkscape:pageshadow="2"
     inkscape:zoom="0.99674932"
     inkscape:cx="320.45478"
     inkscape:cy="-261.14821"
     inkscape:document-units="px"
     inkscape:current-layer="layer1"
     showgrid="true"
     inkscape:window-width="1362"
     inkscape:window-height="729"
     inkscape:window-x="0"
     inkscape:window-y="37"
     inkscape:window-maximized="0"
     fit-margin-top="0"
     fit-margin-left="0"
     fit-margin-right="0"
     fit-margin-bottom="0"
     inkscape:snap-global="false">
    <inkscape:grid
       type="xygrid"
       id="grid2986"
       originx="-45.32422"
       originy="-19.007799" />
  </sodipodi:namedview>
  <metadata
     id="metadata2981">
    <rdf:RDF>
      <cc:Work
         rdf:about="">
        <dc:format>image/svg+xml</dc:format>
        <dc:type
           rdf:resource="http://purl.org/dc/dcmitype/StillImage" />
        <dc:title></dc:title>
      </cc:Work>
    </rdf:RDF>
  </metadata>
  <g
     inkscape:label="Layer 1"
     inkscape:groupmode="layer"
     id="layer1"
     transform="translate(-45.324219,-294.10156)">
    <rect
       style="fill:none;stroke:#000000;stroke-width:2;stroke-miterlimit:4;stroke-dasharray:none;stroke-dashoffset:0;stroke-opacity:1"
       id="rect2990"
       width="180"
       height="716.01282"
       x="260"
       y="306.34937" />
    <path
       style="fill:none;stroke:#000000;stroke-width:0;stroke-linecap:butt;stroke-linejoin:miter;stroke-miterlimit:4;stroke-dasharray:none;stroke-opacity:1;marker-start:url(#Arrow1Lstart);marker-end:none"
       d="M 380,892.36218 Z"
       id="path3768"
       inkscape:connector-curvature="0" />
    <path
       style="font-size:24px;fill:none;stroke:#000000;stroke-width:1.39999998;stroke-linecap:butt;stroke-linejoin:miter;stroke-miterlimit:4;stroke-dasharray:none;stroke-opacity:1;marker-end:url(#Arrow1Lend)"
       d="m 212,1022.3622 c 40,0 40,0 40,0"
       id="path5150"
       inkscape:connector-curvature="0" />
    <text
       xml:space="preserve"
       style="font-style:normal;font-variant:normal;font-weight:normal;font-stretch:normal;line-height:0%;font-family:'American Typewriter';-inkscape-font-specification:'American Typewriter';fill:#000000;fill-opacity:1;stroke:none"
       x="88"
       y="1028.3622"
       id="text5338"><tspan
         sodipodi:role="line"
         id="tspan5340"
         x="88"
         y="1028.3622"
         style="font-size:24px;line-height:1.25">p-&gt;kstack</tspan></text>
    <text
       xml:space="preserve"
       style="font-style:normal;font-variant:normal;font-weight:normal;font-stretch:normal;line-height:0%;font-family:'American Typewriter';-inkscape-font-specification:'American Typewriter';fill:#000000;fill-opacity:1;stroke:none"
       x="290.11176"
       y="525.55371"
       id="text5362"><tspan
         sodipodi:role="line"
         id="tspan5364"
         x="290.11176"
         y="525.55371"
         style="font-size:24px;line-height:1.25">error code</tspan></text>
    <path
       style="fill:none;stroke:#000000;stroke-width:1px;stroke-linecap:butt;stroke-linejoin:miter;stroke-opacity:1"
       d="m 260.11175,339.55371 c 180,0 180,0 180,0"
       id="path5390"
       inkscape:connector-curvature="0" />
    <path
       id="path5394"
       d="m 260.11175,379.55371 c 180,0 180,0 180,0"
       style="fill:none;stroke:#000000;stroke-width:1px;stroke-linecap:butt;stroke-linejoin:miter;stroke-opacity:1"
       inkscape:connector-curvature="0" />
    <path
       style="fill:none;stroke:#000000;stroke-width:1px;stroke-linecap:butt;stroke-linejoin:miter;stroke-opacity:1"
       d="m 260.11175,419.55371 c 180,0 180,0 180,0"
       id="path5396"
       inkscape:connector-curvature="0" />
    <path
       id="path5398"
       d="m 260.11175,459.55371 c 180,0 180,0 180,0"
       style="fill:none;stroke:#000000;stroke-width:1px;stroke-linecap:butt;stroke-linejoin:miter;stroke-opacity:1"
       inkscape:connector-curvature="0" />
    <path
       style="fill:none;stroke:#000000;stroke-width:1px;stroke-linecap:butt;stroke-linejoin:miter;stroke-opacity:1"
       d="m 260.11175,499.55371 c 180,0 180,0 180,0"
       id="path5400"
       inkscape:connector-curvature="0" />
    <path
       id="path5402"
       d="m 260.11175,539.55371 c 180,0 180,0 180,0"
       style="fill:none;stroke:#000000;stroke-width:1px;stroke-linecap:butt;stroke-linejoin:miter;stroke-opacity:1"
       inkscape:connector-curvature="0" />
    <text
       xml:space="preserve"
       style="font-style:normal;font-variant:normal;font-weight:normal;font-stretch:normal;line-height:0%;font-family:'Bitstream Vera Sans';-inkscape-font-specification:'Bitstream Vera Sans';text-align:start;writing-mode:lr-tb;text-anchor:start;fill:#000000;fill-opacity:1;stroke:none"
       x="44"
       y="312.36218"
       id="text5414"><tspan
         sodipodi:role="line"
         id="tspan5416"
         x="44"
         y="312.36218"
         style="font-size:24px;line-height:1.25">cpu-&gt;ts.esp0</tspan></text>
    <path
       id="path5418"
       d="m 210,306.36218 c 40,0 40,0 40,0"
       style="font-size:24px;fill:none;stroke:#000000;stroke-width:1.39999998;stroke-linecap:butt;stroke-linejoin:miter;stroke-miterlimit:4;stroke-dasharray:none;stroke-opacity:1;marker-end:url(#Arrow1Lend)"
       inkscape:connector-curvature="0" />
    <path
       style="font-size:24px;fill:none;stroke:#000000;stroke-width:1.39999998;stroke-linecap:butt;stroke-linejoin:miter;stroke-miterlimit:4;stroke-dasharray:none;stroke-opacity:1;marker-end:url(#Arrow1Lend)"
       d="m 210,932.36218 c 40,0 40,0 40,0"
       id="path5420"
       inkscape:connector-curvature="0" />
    <text
       xml:space="preserve"
       style="font-style:normal;font-variant:normal;font-weight:normal;font-stretch:normal;line-height:0%;font-family:'Bitstream Vera Sans';-inkscape-font-specification:'Bitstream Vera Sans';text-align:start;writing-mode:lr-tb;text-anchor:start;fill:#000000;fill-opacity:1;stroke:none"
       x="316.05759"
       y="322.03821"
       id="text2863"><tspan
         sodipodi:role="line"
         id="tspan2865"
         x="316.05759"
         y="322.03821"
         style="font-size:24px;line-height:1.25">ss</tspan></text>
    <text
       xml:space="preserve"
       style="font-style:normal;font-variant:normal;font-weight:normal;font-stretch:normal;line-height:0%;font-family:'Bitstream Vera Sans';-inkscape-font-specification:'Bitstream Vera Sans';text-align:start;writing-mode:lr-tb;text-anchor:start;fill:#000000;fill-opacity:1;stroke:none"
       x="317.37173"
       y="361.46213"
       id="text2867"><tspan
         sodipodi:role="line"
         id="tspan2869"
         x="317.37173"
         y="361.46213"
         style="font-size:24px;line-height:1.25">esp</tspan></text>
    <text
       xml:space="preserve"
       style="font-style:normal;font-variant:normal;font-weight:normal;font-stretch:normal;line-height:0%;font-family:'Bitstream Vera Sans';-inkscape-font-specification:'Bitstream Vera Sans';text-align:start;writing-mode:lr-tb;text-anchor:start;fill:#000000;fill-opacity:1;stroke:none"
       x="314.74347"
       y="402.2002"
       id="text2871"><tspan
         sodipodi:role="line"
         id="tspan2873"
         x="314.74347"
         y="402.2002"
         style="font-size:24px;line-height:1.25">eflags</tspan></text>
    <text
       xml:space="preserve"
       style="font-style:normal;font-variant:normal;font-weight:normal;font-stretch:normal;line-height:0%;font-family:'Bitstream Vera Sans';-inkscape-font-specification:'Bitstream Vera Sans';text-align:start;writing-mode:lr-tb;text-anchor:start;fill:#000000;fill-opacity:1;stroke:none"
       x="317.37173"
       y="445.5665"
       id="text2875"><tspan
         sodipodi:role="line"
         id="tspan2877"
         x="317.37173"
         y="445.5665"
         style="font-size:24px;line-height:1.25">cs</tspan></text>
    <text
       xml:space="preserve"
       style="font-style:normal;font-variant:normal;font-weight:normal;font-stretch:normal;line-height:0%;font-family:'Bitstream Vera Sans';-inkscape-font-specification:'Bitstream Vera Sans';text-align:start;writing-mode:lr-tb;text-anchor:start;fill:#000000;fill-opacity:1;stroke:none"
       x="320"
       y="482.36218"
       id="text2879"><tspan
         sodipodi:role="line"
         id="tspan2881"
         x="320"
         y="482.36218"
         style="font-size:24px;line-height:1.25">eip</tspan></text>
    <text
       xml:space="preserve"
       style="font-style:normal;font-variant:normal;font-weight:normal;font-stretch:normal;line-height:0%;font-family:'Bitstream Vera Sans';-inkscape-font-specification:'Bitstream Vera Sans';text-align:start;writing-mode:lr-tb;text-anchor:start;fill:#000000;fill-opacity:1;stroke:none"
       x="162"
       y="938.36218"
       id="text2883"><tspan
         sodipodi:role="line"
         id="tspan2885"
         x="162"
         y="938.36218"
         style="font-size:24px;line-height:1.25">esp</tspan></text>
    <text
       xml:space="preserve"
       style="font-style:normal;font-variant:normal;font-weight:normal;font-stretch:normal;line-height:0%;font-family:'Bitstream Vera Sans';-inkscape-font-specification:'Bitstream Vera Sans';text-align:start;writing-mode:lr-tb;text-anchor:start;fill:#000000;fill-opacity:1;stroke:none"
       x="495.37173"
       y="331.5665"
       id="text2887"><tspan
         sodipodi:role="line"
         id="tspan2889"
         x="495.37173"
         y="331.5665"
         style="font-size:24px;line-height:1.25">only present on </tspan><tspan
         sodipodi:role="line"
         x="495.37173"
         y="361.5665"
         id="tspan2891"
         style="font-size:24px;line-height:1.25">privilege change</tspan></text>
    <flowRoot
       xml:space="preserve"
       id="flowRoot2852"
       style="font-style:normal;font-variant:normal;font-weight:normal;font-stretch:normal;line-height:0.01%;font-family:'Bitstream Vera Sans';-inkscape-font-specification:'Bitstream Vera Sans';text-align:start;writing-mode:lr-tb;text-anchor:start;fill:#000000;fill-opacity:1;stroke:none;stroke-width:1px;stroke-linecap:butt;stroke-linejoin:miter;stroke-opacity:1"
       transform="translate(0,4)"><flowRegion
         id="flowRegion2854"><rect
           id="rect2856"
           width="415.80243"
           height="718.20422"
           x="194.72841"
           y="268.86667" /></flowRegion><flowPara
         id="flowPara2858"
         style="font-size:24px;line-height:1.25"> </flowPara></flowRoot>    <text
       xml:space="preserve"
       style="font-style:normal;font-variant:normal;font-weight:normal;font-stretch:normal;line-height:0%;font-family:'Bitstream Vera Sans';-inkscape-font-specification:'Bitstream Vera Sans';text-align:start;writing-mode:lr-tb;text-anchor:start;fill:#000000;fill-opacity:1;stroke:none"
       x="300"
       y="562.36218"
       id="text2868"><tspan
         sodipodi:role="line"
         x="300"
         y="562.36218"
         id="tspan2872"
         style="font-size:24px;line-height:1.25">trapno</tspan></text>
    <text
       xml:space="preserve"
       style="font-style:normal;font-variant:normal;font-weight:normal;font-stretch:normal;line-height:0%;font-family:'Bitstream Vera Sans';-inkscape-font-specification:'Bitstream Vera Sans';text-align:start;writing-mode:lr-tb;text-anchor:start;fill:#000000;fill-opacity:1;stroke:none"
       x="323.02008"
       y="599.90497"
       id="text2876"><tspan
         sodipodi:role="line"
         id="tspan2878"
         x="323.02008"
         y="599.90497"
         style="font-size:24px;line-height:1.25">ds</tspan></text>
    <text
       xml:space="preserve"
       style="font-style:normal;font-variant:normal;font-weight:normal;font-stretch:normal;line-height:0%;font-family:'Bitstream Vera Sans';-inkscape-font-specification:'Bitstream Vera Sans';text-align:start;writing-mode:lr-tb;text-anchor:start;fill:#000000;fill-opacity:1;stroke:none"
       x="324"
       y="622.36218"
       id="text2880"><tspan
         sodipodi:role="line"
         id="tspan2882"
         x="324"
         y="622.36218"
         style="font-size:24px;line-height:1.25">es</tspan></text>
    <text
       xml:space="preserve"
       style="font-style:normal;font-variant:normal;font-weight:normal;font-stretch:normal;line-height:0%;font-family:'Bitstream Vera Sans';-inkscape-font-specification:'Bitstream Vera Sans';text-align:start;writing-mode:lr-tb;text-anchor:start;fill:#000000;fill-opacity:1;stroke:none"
       x="330"
       y="652.36218"
       id="text2884"><tspan
         sodipodi:role="line"
         id="tspan2886"
         x="330"
         y="652.36218"
         style="font-size:24px;line-height:1.25">fs</tspan></text>
    <text
       xml:space="preserve"
       style="font-style:normal;font-variant:normal;font-weight:normal;font-stretch:normal;line-height:0%;font-family:'Bitstream Vera Sans';-inkscape-font-specification:'Bitstream Vera Sans';text-align:start;writing-mode:lr-tb;text-anchor:start;fill:#000000;fill-opacity:1;stroke:none"
       x="330"
       y="682.36218"
       id="text2888"><tspan
         sodipodi:role="line"
         id="tspan2890"
         x="330"
         y="682.36218"
         style="font-size:24px;line-height:1.25">gs</tspan></text>
    <text
       xml:space="preserve"
       style="font-style:normal;font-variant:normal;font-weight:normal;font-stretch:normal;line-height:0%;font-family:'Bitstream Vera Sans';-inkscape-font-specification:'Bitstream Vera Sans';text-align:start;writing-mode:lr-tb;text-anchor:start;fill:#000000;fill-opacity:1;stroke:none"
       x="320"
       y="712.36218"
       id="text2892"><tspan
         sodipodi:role="line"
         x="320"
         y="712.36218"
         id="tspan2896"
         style="font-size:24px;line-height:1.25">eax</tspan></text>
    <text
       xml:space="preserve"
       style="font-style:normal;font-variant:normal;font-weight:normal;font-stretch:normal;line-height:0%;font-family:'Bitstream Vera Sans';-inkscape-font-specification:'Bitstream Vera Sans';text-align:start;writing-mode:lr-tb;text-anchor:start;fill:#000000;fill-opacity:1;stroke:none"
       x="320"
       y="742.36218"
       id="text2900"><tspan
         sodipodi:role="line"
         id="tspan2902"
         x="320"
         y="742.36218"
         style="font-size:24px;line-height:1.25">ecx</tspan></text>
    <text
       xml:space="preserve"
       style="font-style:normal;font-variant:normal;font-weight:normal;font-stretch:normal;line-height:0%;font-family:'Bitstream Vera Sans';-inkscape-font-specification:'Bitstream Vera Sans';text-align:start;writing-mode:lr-tb;text-anchor:start;fill:#000000;fill-opacity:1;stroke:none"
       x="320"
       y="772.36218"
       id="text2904"><tspan
         sodipodi:role="line"
         x="320"
         y="772.36218"
         id="tspan2908"
         style="font-size:24px;line-height:1.25">edx</tspan></text>
    <text
       xml:space="preserve"
       style="font-style:normal;font-variant:normal;font-weight:normal;font-stretch:normal;line-height:0%;font-family:'Bitstream Vera Sans';-inkscape-font-specification:'Bitstream Vera Sans';text-align:start;writing-mode:lr-tb;text-anchor:start;fill:#000000;fill-opacity:1;stroke:none"
       x="320"
       y="802.36218"
       id="text2912"><tspan
         sodipodi:role="line"
         id="tspan2914"
         x="320"
         y="802.36218"
         style="font-size:24px;line-height:1.25">ebx</tspan></text>
    <text
       xml:space="preserve"
       style="font-style:normal;font-variant:normal;font-weight:normal;font-stretch:normal;line-height:0%;font-family:'Bitstream Vera Sans';-inkscape-font-specification:'Bitstream Vera Sans';text-align:start;writing-mode:lr-tb;text-anchor:start;fill:#000000;fill-opacity:1;stroke:none"
       x="320"
       y="832.36218"
       id="text2916"><tspan
         sodipodi:role="line"
         id="tspan2918"
         x="320"
         y="832.36218"
         style="font-size:24px;line-height:1.25">oesp</tspan></text>
    <text
       xml:space="preserve"
       style="font-style:normal;font-variant:normal;font-weight:normal;font-stretch:normal;line-height:0%;font-family:'Bitstream Vera Sans';-inkscape-font-specification:'Bitstream Vera Sans';text-align:start;writing-mode:lr-tb;text-anchor:start;fill:#000000;fill-opacity:1;stroke:none"
       x="320"
       y="862.36218"
       id="text2920"><tspan
         sodipodi:role="line"
         id="tspan2922"
         x="320"
         y="862.36218"
         style="font-size:24px;line-height:1.25">ebp</tspan></text>
    <text
       xml:space="preserve"
       style="font-style:normal;font-variant:normal;font-weight:normal;font-stretch:normal;line-height:0%;font-family:'Bitstream Vera Sans';-inkscape-font-specification:'Bitstream Vera Sans';text-align:start;writing-mode:lr-tb;text-anchor:start;fill:#000000;fill-opacity:1;stroke:none"
       x="330"
       y="892.36218"
       id="text2924"><tspan
         sodipodi:role="line"
         id="tspan2926"
         x="330"
         y="892.36218"
         style="font-size:24px;line-height:1.25">esi</tspan></text>
    <text
       xml:space="preserve"
       style="font-style:normal;font-variant:normal;font-weight:normal;font-stretch:normal;line-height:0%;font-family:'Bitstream Vera Sans';-inkscape-font-specification:'Bitstream Vera Sans';text-align:start;writing-mode:lr-tb;text-anchor:start;fill:#000000;fill-opacity:1;stroke:none"
       x="330"
       y="922.36218"
       id="text2928"><tspan
         sodipodi:role="line"
         id="tspan2930"
         x="330"
         y="922.36218"
         style="font-size:24px;line-height:1.25">edi</tspan></text>
    <path
       style="fill:none;stroke:#000000;stroke-width:1px;stroke-linecap:butt;stroke-linejoin:miter;stroke-opacity:1"
       d="m 260,572.36218 c 180,0 180,0 180,0"
       id="path2932"
       inkscape:connector-curvature="0" />
    <path
       id="path2934"
       d="m 260,602.36218 c 180,0 180,0 180,0"
       style="fill:none;stroke:#000000;stroke-width:1px;stroke-linecap:butt;stroke-linejoin:miter;stroke-opacity:1"
       inkscape:connector-curvature="0" />
    <path
       style="fill:none;stroke:#000000;stroke-width:1px;stroke-linecap:butt;stroke-linejoin:miter;stroke-opacity:1"
       d="m 260,632.36218 c 180,0 180,0 180,0"
       id="path2936"
       inkscape:connector-curvature="0" />
    <path
       id="path2938"
       d="m 260,662.36218 c 180,0 180,0 180,0"
       style="fill:none;stroke:#000000;stroke-width:1px;stroke-linecap:butt;stroke-linejoin:miter;stroke-opacity:1"
       inkscape:connector-curvature="0" />
    <path
       style="fill:none;stroke:#000000;stroke-width:1px;stroke-linecap:butt;stroke-linejoin:miter;stroke-opacity:1"
       d="m 260,692.36218 c 180,0 180,0 180,0"
       id="path2940"
       inkscape:connector-curvature="0" />
    <path
       id="path2942"
       d="m 260,722.36218 c 180,0 180,0 180,0"
       style="fill:none;stroke:#000000;stroke-width:1px;stroke-linecap:butt;stroke-linejoin:miter;stroke-opacity:1"
       inkscape:connector-curvature="0" />
    <path
       style="fill:none;stroke:#000000;stroke-width:1px;stroke-linecap:butt;stroke-linejoin:miter;stroke-opacity:1"
       d="m 260,752.36218 c 180,0 180,0 180,0"
       id="path2944"
       inkscape:connector-curvature="0" />
    <path
       id="path2946"
       d="m 260,782.36218 c 180,0 180,0 180,0"
       style="fill:none;stroke:#000000;stroke-width:1px;stroke-linecap:butt;stroke-linejoin:miter;stroke-opacity:1"
       inkscape:connector-curvature="0" />
    <path
       style="fill:none;stroke:#000000;stroke-width:1px;stroke-linecap:butt;stroke-linejoin:miter;stroke-opacity:1"
       d="m 260,812.36218 c 180,0 180,0 180,0"
       id="path2948"
       inkscape:connector-curvature="0" />
    <path
       id="path2950"
       d="m 260,842.36218 c 180,0 180,0 180,0"
       style="fill:none;stroke:#000000;stroke-width:1px;stroke-linecap:butt;stroke-linejoin:miter;stroke-opacity:1"
       inkscape:connector-curvature="0" />
    <path
       style="fill:none;stroke:#000000;stroke-width:1px;stroke-linecap:butt;stroke-linejoin:miter;stroke-opacity:1"
       d="m 260,872.36218 c 180,0 180,0 180,0"
       id="path2952"
       inkscape:connector-curvature="0" />
    <path
       id="path2954"
       d="m 260,902.36218 c 180,0 180,0 180,0"
       style="fill:none;stroke:#000000;stroke-width:1px;stroke-linecap:butt;stroke-linejoin:miter;stroke-opacity:1"
       inkscape:connector-curvature="0" />
    <path
       style="fill:none;stroke:#000000;stroke-width:1px;stroke-linecap:butt;stroke-linejoin:miter;stroke-opacity:1"
       d="m 260,932.36218 c 180,0 180,0 180,0"
       id="path2956"
       inkscape:connector-curvature="0" />
    <text
       xml:space="preserve"
       style="font-style:normal;font-variant:normal;font-weight:normal;font-stretch:normal;line-height:0%;font-family:'Bitstream Vera Sans';-inkscape-font-specification:'Bitstream Vera Sans';text-align:start;writing-mode:lr-tb;text-anchor:start;fill:#000000;fill-opacity:1;stroke:none"
       x="303.9686"
       y="981.08496"
       id="text2958"><tspan
         sodipodi:role="line"
         id="tspan2960"
         x="303.9686"
         y="981.08496"
         style="font-size:24px;line-height:1.25">(empty)</tspan></text>
    <path
       style="fill:none;stroke:#000000;stroke-width:1px;stroke-linecap:butt;stroke-linejoin:miter;stroke-opacity:1"
       d="m 450,307.39629 c 40.64119,-0.0682 0.30966,25.5295 39.22237,34.25648 -38.51636,10.80789 1.43457,38.12653 -39.22237,37.16235"
       id="path261"
       inkscape:connector-curvature="0"
       sodipodi:nodetypes="ccc" />
  </g>
</svg>
