<?xml version="1.0" encoding="UTF-8" standalone="no"?>
<!-- Created with Inkscape (http://www.inkscape.org/) -->

<svg
   xmlns:dc="http://purl.org/dc/elements/1.1/"
   xmlns:cc="http://creativecommons.org/ns#"
   xmlns:rdf="http://www.w3.org/1999/02/22-rdf-syntax-ns#"
   xmlns:svg="http://www.w3.org/2000/svg"
   xmlns="http://www.w3.org/2000/svg"
   xmlns:xlink="http://www.w3.org/1999/xlink"
   xmlns:sodipodi="http://sodipodi.sourceforge.net/DTD/sodipodi-0.dtd"
   xmlns:inkscape="http://www.inkscape.org/namespaces/inkscape"
   width="706.53723"
   height="677.6167"
   id="svg2"
   version="1.1"
   inkscape:version="0.92.3 (2405546, 2018-03-11)"
   sodipodi:docname="x86_pagetable.svg">
  <sodipodi:namedview
     id="base"
     pagecolor="#ffffff"
     bordercolor="#666666"
     borderopacity="1.0"
     inkscape:pageopacity="0.0"
     inkscape:pageshadow="2"
     inkscape:zoom="0.8359833"
     inkscape:cx="512.63568"
     inkscape:cy="405.57849"
     inkscape:document-units="mm"
     inkscape:current-layer="layer1"
     showgrid="false"
     inkscape:window-width="1362"
     inkscape:window-height="729"
     inkscape:window-x="0"
     inkscape:window-y="37"
     inkscape:window-maximized="0"
     inkscape:snap-grids="true"
     showguides="true"
     inkscape:guide-bbox="true"
     units="mm"
     fit-margin-top="0"
     fit-margin-left="0"
     fit-margin-right="0"
     fit-margin-bottom="0">
    <inkscape:grid
       dotted="true"
       spacingy="0.88582677"
       spacingx="0.88582677"
       units="mm"
       snapvisiblegridlinesonly="true"
       enabled="true"
       visible="true"
       empspacing="5"
       id="grid3625"
       type="xygrid"
       originx="-30.477784"
       originy="-38.221236" />
    <inkscape:grid
       type="xygrid"
       id="grid9262"
       empspacing="5"
       visible="false"
       enabled="false"
       snapvisiblegridlinesonly="true"
       units="mm"
       spacingx="1.3287402"
       spacingy="0.88582677"
       originx="-30.477784"
       originy="-38.221236" />
  </sodipodi:namedview>
  <defs
     id="defs4">
    <inkscape:perspective
       sodipodi:type="inkscape:persp3d"
       inkscape:vp_x="0 : 495 : 1"
       inkscape:vp_y="0 : 1000 : 0"
       inkscape:vp_z="765 : 495 : 1"
       inkscape:persp3d-origin="382.5 : 330 : 1"
       id="perspective380" />
    <linearGradient
       id="linearGradient12068">
      <stop
         style="stop-color:#0000ff;stop-opacity:1;"
         offset="0"
         id="stop12070" />
      <stop
         style="stop-color:#ff0000;stop-opacity:1"
         offset="1"
         id="stop12072" />
    </linearGradient>
    <linearGradient
       id="linearGradient10843">
      <stop
         id="stop10845"
         offset="0"
         style="stop-color:#dddddd;stop-opacity:1;" />
      <stop
         id="stop10847"
         offset="1"
         style="stop-color:#ffffff;stop-opacity:1;" />
    </linearGradient>
    <marker
       style="overflow:visible"
       id="Arrow1Mend"
       refX="0"
       refY="0"
       orient="auto"
       inkscape:stockid="Arrow1Mend">
      <path
         transform="matrix(-0.4,0,0,-0.4,-4,0)"
         style="fill-rule:evenodd;stroke:#000000;stroke-width:1.00000003pt;marker-start:none"
         d="M 0,0 5,-5 -12.5,0 5,5 Z"
         id="path3647"
         inkscape:connector-curvature="0" />
    </marker>
    <marker
       style="overflow:visible"
       id="Arrow2Lendv"
       refX="0"
       refY="0"
       orient="auto"
       inkscape:stockid="Arrow2Lendv">
      <path
         transform="matrix(-1.1,0,0,-1.1,-1.1,0)"
         d="M 8.7185878,4.0337352 -2.2072895,0.01601326 8.7185884,-4.0017078 c -1.7454984,2.3720609 -1.7354408,5.6174519 -6e-7,8.035443 z"
         style="font-size:12px;fill:#ff0000;fill-rule:evenodd;stroke:#ff0000;stroke-width:0.625;stroke-linejoin:round"
         id="path5041"
         inkscape:connector-curvature="0" />
    </marker>
    <marker
       style="overflow:visible"
       id="Arrow2Lendo"
       refX="0"
       refY="0"
       orient="auto"
       inkscape:stockid="Arrow2Lendo">
      <path
         transform="matrix(-1.1,0,0,-1.1,-1.1,0)"
         d="M 8.7185878,4.0337352 -2.2072895,0.01601326 8.7185884,-4.0017078 c -1.7454984,2.3720609 -1.7354408,5.6174519 -6e-7,8.035443 z"
         style="font-size:12px;fill:#0000ff;fill-rule:evenodd;stroke:#0000ff;stroke-width:0.625;stroke-linejoin:round"
         id="path5184"
         inkscape:connector-curvature="0" />
    </marker>
    <filter
       height="1.24"
       y="-0.11999999"
       width="1.24"
       x="-0.12000001"
       id="filter3629-6"
       inkscape:collect="always"
       style="color-interpolation-filters:sRGB">
      <feGaussianBlur
         id="feGaussianBlur3631-3"
         stdDeviation="3.9862206"
         inkscape:collect="always" />
    </filter>
    <marker
       style="overflow:visible"
       id="Arrow2LendRr"
       refX="0"
       refY="0"
       orient="auto"
       inkscape:stockid="Arrow2LendRr">
      <path
         transform="matrix(-1.1,0,0,-1.1,-1.1,0)"
         d="M 8.7185878,4.0337352 -2.2072895,0.01601326 8.7185884,-4.0017078 c -1.7454984,2.3720609 -1.7354408,5.6174519 -6e-7,8.035443 z"
         style="font-size:12px;fill:#009000;fill-rule:evenodd;stroke:#009000;stroke-width:0.625;stroke-linejoin:round"
         id="path8792"
         inkscape:connector-curvature="0" />
    </marker>
    <marker
       style="overflow:visible"
       id="Arrow2LendHf"
       refX="0"
       refY="0"
       orient="auto"
       inkscape:stockid="Arrow2LendHf">
      <path
         transform="matrix(-1.1,0,0,-1.1,-1.1,0)"
         d="M 8.7185878,4.0337352 -2.2072895,0.01601326 8.7185884,-4.0017078 c -1.7454984,2.3720609 -1.7354408,5.6174519 -6e-7,8.035443 z"
         style="font-size:12px;fill:#009000;fill-rule:evenodd;stroke:#009000;stroke-width:0.625;stroke-linejoin:round"
         id="path8795"
         inkscape:connector-curvature="0" />
    </marker>
    <marker
       style="overflow:visible"
       id="Arrow2LendRm"
       refX="0"
       refY="0"
       orient="auto"
       inkscape:stockid="Arrow2LendRm">
      <path
         transform="matrix(-1.1,0,0,-1.1,-1.1,0)"
         d="M 8.7185878,4.0337352 -2.2072895,0.01601326 8.7185884,-4.0017078 c -1.7454984,2.3720609 -1.7354408,5.6174519 -6e-7,8.035443 z"
         style="font-size:12px;fill:#009000;fill-rule:evenodd;stroke:#009000;stroke-width:0.625;stroke-linejoin:round"
         id="path8798"
         inkscape:connector-curvature="0" />
    </marker>
    <marker
       style="overflow:visible"
       id="Arrow2LendHL"
       refX="0"
       refY="0"
       orient="auto"
       inkscape:stockid="Arrow2LendHL">
      <path
         transform="matrix(-1.1,0,0,-1.1,-1.1,0)"
         d="M 8.7185878,4.0337352 -2.2072895,0.01601326 8.7185884,-4.0017078 c -1.7454984,2.3720609 -1.7354408,5.6174519 -6e-7,8.035443 z"
         style="font-size:12px;fill:#009000;fill-rule:evenodd;stroke:#009000;stroke-width:0.625;stroke-linejoin:round"
         id="path8801"
         inkscape:connector-curvature="0" />
    </marker>
    <marker
       inkscape:stockid="DotLT"
       orient="auto"
       refY="0"
       refX="0"
       id="DotLT"
       style="overflow:visible">
      <path
         id="path10251"
         d="m -2.5,-1 c 0,2.76 -2.24,5 -5,5 -2.76,0 -5,-2.24 -5,-5 0,-2.76 2.24,-5 5,-5 2.76,0 5,2.24 5,5 z"
         style="fill:#0000ff;fill-rule:evenodd;stroke:#0000ff;stroke-width:1.00000003pt;marker-start:none;marker-end:none"
         transform="matrix(0.8,0,0,0.8,5.92,0.8)"
         inkscape:connector-curvature="0" />
    </marker>
    <marker
       style="overflow:visible"
       id="Arrow2LendoAY"
       refX="0"
       refY="0"
       orient="auto"
       inkscape:stockid="Arrow2LendoAY">
      <path
         transform="matrix(-1.1,0,0,-1.1,-1.1,0)"
         d="M 8.7185878,4.0337352 -2.2072895,0.01601326 8.7185884,-4.0017078 c -1.7454984,2.3720609 -1.7354408,5.6174519 -6e-7,8.035443 z"
         style="font-size:12px;fill:#0000ff;fill-rule:evenodd;stroke:#0000ff;stroke-width:0.625;stroke-linejoin:round"
         id="path10254"
         inkscape:connector-curvature="0" />
    </marker>
    <linearGradient
       gradientTransform="translate(8.8582688,91.740763)"
       gradientUnits="userSpaceOnUse"
       y2="255.11809"
       x2="274.60629"
       y1="157.67714"
       x1="274.60629"
       id="linearGradient10849"
       xlink:href="#linearGradient10843"
       inkscape:collect="always" />
    <marker
       inkscape:stockid="DotLTe"
       orient="auto"
       refY="0"
       refX="0"
       id="DotLTe"
       style="overflow:visible">
      <path
         id="path11293"
         d="m -2.5,-1 c 0,2.76 -2.24,5 -5,5 -2.76,0 -5,-2.24 -5,-5 0,-2.76 2.24,-5 5,-5 2.76,0 5,2.24 5,5 z"
         style="fill:#ff0000;fill-rule:evenodd;stroke:#ff0000;stroke-width:1.00000003pt;marker-start:none;marker-end:none"
         transform="matrix(0.8,0,0,0.8,5.92,0.8)"
         inkscape:connector-curvature="0" />
    </marker>
    <marker
       style="overflow:visible"
       id="Arrow2LendoAY0"
       refX="0"
       refY="0"
       orient="auto"
       inkscape:stockid="Arrow2LendoAY0">
      <path
         transform="matrix(-1.1,0,0,-1.1,-1.1,0)"
         d="M 8.7185878,4.0337352 -2.2072895,0.01601326 8.7185884,-4.0017078 c -1.7454984,2.3720609 -1.7354408,5.6174519 -6e-7,8.035443 z"
         style="font-size:12px;fill:#ff0000;fill-rule:evenodd;stroke:#ff0000;stroke-width:0.625;stroke-linejoin:round"
         id="path11296"
         inkscape:connector-curvature="0" />
    </marker>
    <linearGradient
       y2="325.98422"
       x2="695.37402"
       y1="325.98422"
       x1="469.48819"
       gradientUnits="userSpaceOnUse"
       id="linearGradient12906"
       xlink:href="#linearGradient12068"
       inkscape:collect="always" />
    <filter
       height="1.5520009"
       y="-0.27600044"
       width="1.1533333"
       x="-0.076666631"
       id="filter13083"
       inkscape:collect="always"
       style="color-interpolation-filters:sRGB">
      <feGaussianBlur
         id="feGaussianBlur13085"
         stdDeviation="2.5467521"
         inkscape:collect="always" />
    </filter>
    <linearGradient
       gradientTransform="translate(8.85827,91.740763)"
       y2="256.50681"
       x2="506.27756"
       y1="159.06589"
       x1="506.27756"
       gradientUnits="userSpaceOnUse"
       id="linearGradient13321"
       xlink:href="#linearGradient10843"
       inkscape:collect="always" />
    <linearGradient
       y2="283.48224"
       x2="274.60629"
       y1="157.67714"
       x1="274.60629"
       gradientTransform="matrix(1.0426433,0,0,1.0121478,-191.24256,541.6067)"
       gradientUnits="userSpaceOnUse"
       id="linearGradient14465"
       xlink:href="#linearGradient10843"
       inkscape:collect="always" />
    <marker
       inkscape:stockid="DotLTe6"
       orient="auto"
       refY="0"
       refX="0"
       id="DotLTe6"
       style="overflow:visible">
      <path
         id="path14736"
         d="m -2.5,-1 c 0,2.76 -2.24,5 -5,5 -2.76,0 -5,-2.24 -5,-5 0,-2.76 2.24,-5 5,-5 2.76,0 5,2.24 5,5 z"
         style="fill:#ff9999;fill-rule:evenodd;stroke:#ff9999;stroke-width:1.00000003pt;marker-start:none;marker-end:none"
         transform="matrix(0.8,0,0,0.8,5.92,0.8)"
         inkscape:connector-curvature="0" />
    </marker>
    <marker
       style="overflow:visible"
       id="Arrow2LendoAY0I"
       refX="0"
       refY="0"
       orient="auto"
       inkscape:stockid="Arrow2LendoAY0I">
      <path
         transform="matrix(-1.1,0,0,-1.1,-1.1,0)"
         d="M 8.7185878,4.0337352 -2.2072895,0.01601326 8.7185884,-4.0017078 c -1.7454984,2.3720609 -1.7354408,5.6174519 -6e-7,8.035443 z"
         style="font-size:12px;fill:#ff9999;fill-rule:evenodd;stroke:#ff9999;stroke-width:0.625;stroke-linejoin:round"
         id="path14739"
         inkscape:connector-curvature="0" />
    </marker>
  </defs>
  <metadata
     id="metadata7">
    <rdf:RDF>
      <cc:Work
         rdf:about="">
        <dc:format>image/svg+xml</dc:format>
        <dc:type
           rdf:resource="http://purl.org/dc/dcmitype/StillImage" />
        <dc:title></dc:title>
      </cc:Work>
    </rdf:RDF>
  </metadata>
  <g
     style="display:inline"
     id="layer1"
     inkscape:groupmode="layer"
     inkscape:label="Layer 1"
     transform="translate(-30.477784,-336.52432)">
    <path
       id="path13396"
       d="M 279.79413,701.19927 31.003939,829.63446 H 456.20078 L 399.86231,701.19927 Z"
       style="fill:url(#linearGradient14465);fill-opacity:1;stroke:none;stroke-width:1.02728248"
       inkscape:transform-center-x="-133.9222"
       inkscape:transform-center-y="49.833191"
       sodipodi:nodetypes="ccccc"
       inkscape:connector-curvature="0" />
    <rect
       y="829.63446"
       x="296.75198"
       height="44.291359"
       width="39.862213"
       id="rect9535"
       style="fill:#ffffff;fill-rule:evenodd;stroke:#999999;stroke-width:1.05230856px;stroke-linecap:butt;stroke-linejoin:miter;stroke-opacity:1" />
    <rect
       style="fill:#ffffff;fill-rule:evenodd;stroke:#000000;stroke-width:1.05230856px;stroke-linecap:butt;stroke-linejoin:miter;stroke-opacity:1"
       id="rect2816-5"
       width="265.74805"
       height="44.291359"
       x="31.003939"
       y="829.63446" />
    <text
       id="text4798"
       y="174.35651"
       x="159.37099"
       style="font-style:normal;font-weight:normal;line-height:0%;font-family:'Bitstream Vera Sans';fill:#000000;fill-opacity:1;stroke:none"
       xml:space="preserve"><tspan
         y="174.35651"
         x="159.37099"
         id="tspan4800"
         sodipodi:role="line"
         style="font-size:40px;line-height:1.25"> </tspan></text>
    <text
       id="text9250"
       y="856.20929"
       x="163.19778"
       style="font-style:normal;font-weight:normal;line-height:0%;font-family:'Bitstream Vera Sans';text-align:center;text-anchor:middle;fill:#000000;fill-opacity:1;stroke:none"
       xml:space="preserve"><tspan
         style="font-size:14px;line-height:1.25;text-align:center;text-anchor:middle"
         y="856.20929"
         x="163.19778"
         id="tspan9252"
         sodipodi:role="line">Physical Page Number</tspan></text>
    <text
       xml:space="preserve"
       style="font-style:normal;font-weight:normal;line-height:0%;font-family:'Bitstream Vera Sans';text-align:center;writing-mode:lr-tb;text-anchor:middle;fill:#000000;fill-opacity:1;stroke:none"
       x="314.82455"
       y="844.19305"
       id="text9254"><tspan
         sodipodi:role="line"
         id="tspan9256"
         x="314.82455"
         y="844.19305"
         style="font-size:14px;line-height:85.00000238%;text-align:center;writing-mode:lr-tb;text-anchor:middle">A</tspan><tspan
         sodipodi:role="line"
         x="314.82455"
         y="856.09308"
         style="font-size:14px;line-height:85.00000238%;text-align:center;writing-mode:lr-tb;text-anchor:middle"
         id="tspan9258">V</tspan><tspan
         sodipodi:role="line"
         x="314.82455"
         y="867.99304"
         style="font-size:14px;line-height:85.00000238%;text-align:center;writing-mode:lr-tb;text-anchor:middle"
         id="tspan9260">L</tspan></text>
    <rect
       style="fill:#cccccc;fill-rule:evenodd;stroke:#999999;stroke-width:1.05230856px;stroke-linecap:butt;stroke-linejoin:miter;stroke-opacity:1"
       id="rect9537"
       width="26.574806"
       height="44.291359"
       x="336.6142"
       y="829.63446" />
    <rect
       y="829.63446"
       x="363.189"
       height="44.291359"
       width="13.287413"
       id="rect9539"
       style="fill:#ffffff;fill-rule:evenodd;stroke:#999999;stroke-width:1.05230856px;stroke-linecap:butt;stroke-linejoin:miter;stroke-opacity:1" />
    <text
       xml:space="preserve"
       style="font-style:normal;font-weight:normal;line-height:0%;font-family:'Bitstream Vera Sans';text-align:center;text-anchor:middle;fill:#000000;fill-opacity:1;stroke:none"
       x="369.55585"
       y="856.88318"
       id="text9541"><tspan
         sodipodi:role="line"
         id="tspan9543"
         x="369.55585"
         y="856.88318"
         style="font-size:14px;line-height:1.25;text-align:center;text-anchor:middle">D</tspan></text>
    <text
       id="text9545"
       y="825.20532"
       x="369.78827"
       style="font-style:normal;font-weight:normal;line-height:0%;font-family:'Bitstream Vera Sans';text-align:center;text-anchor:middle;fill:#000000;fill-opacity:1;stroke:none"
       xml:space="preserve"><tspan
         style="font-size:10px;line-height:1.25;text-align:center;text-anchor:middle"
         y="825.20532"
         x="369.78827"
         id="tspan9547"
         sodipodi:role="line">6</tspan></text>
    <rect
       style="fill:#ffffff;fill-rule:evenodd;stroke:#999999;stroke-width:1.05230856px;stroke-linecap:butt;stroke-linejoin:miter;stroke-opacity:1"
       id="rect9559"
       width="13.287413"
       height="44.291359"
       x="376.47638"
       y="829.63446" />
    <text
       id="text9561"
       y="856.88318"
       x="382.84323"
       style="font-style:normal;font-weight:normal;line-height:0%;font-family:'Bitstream Vera Sans';text-align:center;text-anchor:middle;fill:#000000;fill-opacity:1;stroke:none"
       xml:space="preserve"><tspan
         style="font-size:14px;line-height:1.25;text-align:center;text-anchor:middle"
         y="856.88318"
         x="382.84323"
         id="tspan9563"
         sodipodi:role="line">A</tspan></text>
    <text
       xml:space="preserve"
       style="font-style:normal;font-weight:normal;line-height:0%;font-family:'Bitstream Vera Sans';text-align:center;text-anchor:middle;fill:#000000;fill-opacity:1;stroke:none"
       x="383.07565"
       y="825.20532"
       id="text9565"><tspan
         sodipodi:role="line"
         id="tspan9567"
         x="383.07565"
         y="825.20532"
         style="font-size:10px;line-height:1.25;text-align:center;text-anchor:middle">5</tspan></text>
    <rect
       y="829.63446"
       x="389.76379"
       height="44.291359"
       width="13.287413"
       id="rect9569"
       style="fill:#ffffff;fill-rule:evenodd;stroke:#999999;stroke-width:1.05230856px;stroke-linecap:butt;stroke-linejoin:miter;stroke-opacity:1" />
    <text
       xml:space="preserve"
       style="font-style:normal;font-weight:normal;line-height:0%;font-family:'Bitstream Vera Sans';text-align:center;text-anchor:middle;fill:#000000;fill-opacity:1;stroke:none"
       x="396.13065"
       y="848.88318"
       id="text9571"><tspan
         sodipodi:role="line"
         id="tspan9573"
         x="396.13065"
         y="848.88318"
         style="font-size:14px;line-height:1.25;text-align:center;text-anchor:middle">C</tspan><tspan
         sodipodi:role="line"
         x="396.13065"
         y="866.38318"
         style="font-size:14px;line-height:1.25;text-align:center;text-anchor:middle"
         id="tspan9619">D</tspan></text>
    <text
       id="text9575"
       y="825.20532"
       x="396.36307"
       style="font-style:normal;font-weight:normal;line-height:0%;font-family:'Bitstream Vera Sans';text-align:center;text-anchor:middle;fill:#000000;fill-opacity:1;stroke:none"
       xml:space="preserve"><tspan
         style="font-size:10px;line-height:1.25;text-align:center;text-anchor:middle"
         y="825.20532"
         x="396.36307"
         id="tspan9577"
         sodipodi:role="line">4</tspan></text>
    <rect
       style="fill:#ffffff;fill-rule:evenodd;stroke:#999999;stroke-width:1.05230856px;stroke-linecap:butt;stroke-linejoin:miter;stroke-opacity:1"
       id="rect9579"
       width="13.287413"
       height="44.291359"
       x="403.05121"
       y="829.63446" />
    <text
       id="text9581"
       y="848.88318"
       x="409.41806"
       style="font-style:normal;font-weight:normal;line-height:0%;font-family:'Bitstream Vera Sans';text-align:center;text-anchor:middle;fill:#000000;fill-opacity:1;stroke:none"
       xml:space="preserve"><tspan
         style="font-size:14px;line-height:1.25;text-align:center;text-anchor:middle"
         y="848.88318"
         x="409.41806"
         id="tspan9583"
         sodipodi:role="line">W</tspan><tspan
         style="font-size:14px;line-height:1.25;text-align:center;text-anchor:middle"
         y="866.38318"
         x="409.41806"
         sodipodi:role="line"
         id="tspan9621">T</tspan></text>
    <text
       xml:space="preserve"
       style="font-style:normal;font-weight:normal;line-height:0%;font-family:'Bitstream Vera Sans';text-align:center;text-anchor:middle;fill:#000000;fill-opacity:1;stroke:none"
       x="409.65048"
       y="825.20532"
       id="text9585"><tspan
         sodipodi:role="line"
         id="tspan9587"
         x="409.65048"
         y="825.20532"
         style="font-size:10px;line-height:1.25;text-align:center;text-anchor:middle">3</tspan></text>
    <rect
       y="829.63446"
       x="416.33859"
       height="44.291359"
       width="13.287413"
       id="rect9589"
       style="fill:#ffffff;fill-rule:evenodd;stroke:#999999;stroke-width:1.05230856px;stroke-linecap:butt;stroke-linejoin:miter;stroke-opacity:1" />
    <text
       xml:space="preserve"
       style="font-style:normal;font-weight:normal;line-height:0%;font-family:'Bitstream Vera Sans';text-align:center;text-anchor:middle;fill:#000000;fill-opacity:1;stroke:none"
       x="422.70544"
       y="856.88318"
       id="text9591"><tspan
         sodipodi:role="line"
         id="tspan9593"
         x="422.70544"
         y="856.88318"
         style="font-size:14px;line-height:1.25;text-align:center;text-anchor:middle">U</tspan></text>
    <text
       id="text9595"
       y="825.20532"
       x="422.93787"
       style="font-style:normal;font-weight:normal;line-height:0%;font-family:'Bitstream Vera Sans';text-align:center;text-anchor:middle;fill:#000000;fill-opacity:1;stroke:none"
       xml:space="preserve"><tspan
         style="font-size:10px;line-height:1.25;text-align:center;text-anchor:middle"
         y="825.20532"
         x="422.93787"
         id="tspan9597"
         sodipodi:role="line">2</tspan></text>
    <rect
       style="fill:#ffffff;fill-rule:evenodd;stroke:#999999;stroke-width:1.05230856px;stroke-linecap:butt;stroke-linejoin:miter;stroke-opacity:1"
       id="rect9599"
       width="13.287413"
       height="44.291359"
       x="429.62601"
       y="829.63446" />
    <text
       id="text9601"
       y="856.88318"
       x="435.99286"
       style="font-style:normal;font-weight:normal;line-height:0%;font-family:'Bitstream Vera Sans';text-align:center;text-anchor:middle;fill:#000000;fill-opacity:1;stroke:none"
       xml:space="preserve"><tspan
         style="font-size:14px;line-height:1.25;text-align:center;text-anchor:middle"
         y="856.88318"
         x="435.99286"
         id="tspan9603"
         sodipodi:role="line">W</tspan></text>
    <text
       xml:space="preserve"
       style="font-style:normal;font-weight:normal;line-height:0%;font-family:'Bitstream Vera Sans';text-align:center;text-anchor:middle;fill:#000000;fill-opacity:1;stroke:none"
       x="436.22528"
       y="825.20532"
       id="text9605"><tspan
         sodipodi:role="line"
         id="tspan9607"
         x="436.22528"
         y="825.20532"
         style="font-size:10px;line-height:1.25;text-align:center;text-anchor:middle">1</tspan></text>
    <rect
       y="829.63446"
       x="442.91339"
       height="44.291359"
       width="13.287413"
       id="rect9609"
       style="fill:#ffffff;fill-rule:evenodd;stroke:#999999;stroke-width:1.05230856px;stroke-linecap:butt;stroke-linejoin:miter;stroke-opacity:1" />
    <text
       xml:space="preserve"
       style="font-style:normal;font-weight:normal;line-height:0%;font-family:'Bitstream Vera Sans';text-align:center;text-anchor:middle;fill:#000000;fill-opacity:1;stroke:none"
       x="449.28024"
       y="856.88318"
       id="text9611"><tspan
         sodipodi:role="line"
         id="tspan9613"
         x="449.28024"
         y="856.88318"
         style="font-size:14px;line-height:1.25;text-align:center;text-anchor:middle">P</tspan></text>
    <text
       id="text9615"
       y="825.20532"
       x="449.51266"
       style="font-style:normal;font-weight:normal;line-height:0%;font-family:'Bitstream Vera Sans';text-align:center;text-anchor:middle;fill:#000000;fill-opacity:1;stroke:none"
       xml:space="preserve"><tspan
         style="font-size:10px;line-height:1.25;text-align:center;text-anchor:middle"
         y="825.20532"
         x="449.51266"
         id="tspan9617"
         sodipodi:role="line">0</tspan></text>
    <text
       xml:space="preserve"
       style="font-style:normal;font-weight:normal;line-height:0%;font-family:'Bitstream Vera Sans';text-align:center;text-anchor:middle;fill:#000000;fill-opacity:1;stroke:none"
       x="356.50089"
       y="825.20532"
       id="text9625"><tspan
         sodipodi:role="line"
         id="tspan9627"
         x="356.50089"
         y="825.20532"
         style="font-size:10px;line-height:1.25;text-align:center;text-anchor:middle">7</tspan></text>
    <text
       id="text9631"
       y="825.20532"
       x="343.21347"
       style="font-style:normal;font-weight:normal;line-height:0%;font-family:'Bitstream Vera Sans';text-align:center;text-anchor:middle;fill:#000000;fill-opacity:1;stroke:none"
       xml:space="preserve"><tspan
         style="font-size:10px;line-height:1.25;text-align:center;text-anchor:middle"
         y="825.20532"
         x="343.21347"
         id="tspan9633"
         sodipodi:role="line">8</tspan></text>
    <text
       xml:space="preserve"
       style="font-style:normal;font-weight:normal;line-height:0%;font-family:'Bitstream Vera Sans';text-align:center;text-anchor:middle;fill:#000000;fill-opacity:1;stroke:none"
       x="329.92609"
       y="825.20532"
       id="text9637"><tspan
         sodipodi:role="line"
         id="tspan9639"
         x="329.92609"
         y="825.20532"
         style="font-size:10px;line-height:1.25;text-align:center;text-anchor:middle">9</tspan></text>
    <text
       id="text9643"
       y="825.20532"
       x="316.63867"
       style="font-style:normal;font-weight:normal;line-height:0%;font-family:'Bitstream Vera Sans';text-align:center;text-anchor:middle;fill:#000000;fill-opacity:1;stroke:none"
       xml:space="preserve"><tspan
         style="font-size:10px;line-height:1.25;text-align:center;text-anchor:middle"
         y="825.20532"
         x="316.63867"
         id="tspan9645"
         sodipodi:role="line">10</tspan></text>
    <text
       xml:space="preserve"
       style="font-style:normal;font-weight:normal;line-height:0%;font-family:'Bitstream Vera Sans';text-align:center;text-anchor:middle;fill:#000000;fill-opacity:1;stroke:none"
       x="303.35126"
       y="825.20532"
       id="text9649"><tspan
         sodipodi:role="line"
         id="tspan9651"
         x="303.35126"
         y="825.20532"
         style="font-size:10px;line-height:1.25;text-align:center;text-anchor:middle">11</tspan></text>
    <text
       id="text9655"
       y="825.20532"
       x="290.06387"
       style="font-style:normal;font-weight:normal;line-height:0%;font-family:'Bitstream Vera Sans';text-align:center;text-anchor:middle;fill:#000000;fill-opacity:1;stroke:none"
       xml:space="preserve"><tspan
         style="font-size:10px;line-height:1.25;text-align:center;text-anchor:middle"
         y="825.20532"
         x="290.06387"
         id="tspan9657"
         sodipodi:role="line">12</tspan></text>
    <text
       xml:space="preserve"
       style="font-style:normal;font-weight:normal;line-height:0%;font-family:'Bitstream Vera Sans';text-align:center;text-anchor:middle;fill:#000000;fill-opacity:1;stroke:none"
       x="37.603218"
       y="825.20532"
       id="text9661"><tspan
         sodipodi:role="line"
         id="tspan9663"
         x="37.603218"
         y="825.20532"
         style="font-size:10px;line-height:1.25;text-align:center;text-anchor:middle">31</tspan></text>
    <rect
       y="829.63446"
       x="31.003939"
       height="44.291359"
       width="425.19684"
       id="rect9665"
       style="fill:none;stroke:#000000;stroke-width:1.05230856px;stroke-linecap:butt;stroke-linejoin:miter;stroke-opacity:1" />
    <path
       style="fill:none;stroke:#000000;stroke-width:1px;stroke-linecap:butt;stroke-linejoin:miter;stroke-opacity:1"
       d="m 449.55711,873.92581 v 8.85827 h 19.93108"
       id="path9667"
       sodipodi:nodetypes="ccc"
       inkscape:connector-curvature="0" />
    <path
       style="fill:none;stroke:#000000;stroke-width:1px;stroke-linecap:butt;stroke-linejoin:miter;stroke-opacity:1"
       d="m 436.26971,873.92581 v 26.57481 h 33.21848"
       id="path9669"
       sodipodi:nodetypes="ccc"
       inkscape:connector-curvature="0" />
    <text
       id="text9671"
       y="887.2132"
       x="500.08307"
       style="font-style:normal;font-weight:normal;line-height:0%;font-family:'Bitstream Vera Sans';text-align:center;text-anchor:middle;fill:#000000;fill-opacity:1;stroke:none"
       xml:space="preserve"><tspan
         style="font-size:14px;line-height:1.25;text-align:end;text-anchor:end"
         y="887.2132"
         x="500.08307"
         id="tspan9673"
         sodipodi:role="line">P</tspan></text>
    <text
       xml:space="preserve"
       style="font-style:normal;font-weight:normal;line-height:0%;font-family:'Bitstream Vera Sans';text-align:center;text-anchor:middle;fill:#000000;fill-opacity:1;stroke:none"
       x="486.21295"
       y="904.92975"
       id="text9675"><tspan
         sodipodi:role="line"
         id="tspan9677"
         x="486.21295"
         y="904.92975"
         style="font-size:14px;line-height:1.25;text-align:justify;text-anchor:start">W</tspan></text>
    <path
       style="fill:none;stroke:#000000;stroke-width:1px;stroke-linecap:butt;stroke-linejoin:miter;stroke-opacity:1"
       d="m 422.9823,873.92581 v 44.29134 h 46.50589"
       id="path9679"
       sodipodi:nodetypes="ccc"
       inkscape:connector-curvature="0" />
    <path
       style="fill:none;stroke:#000000;stroke-width:1px;stroke-linecap:butt;stroke-linejoin:miter;stroke-opacity:1"
       d="m 409.6949,873.92581 v 62.00788 h 59.79329"
       id="path9683"
       sodipodi:nodetypes="ccc"
       inkscape:connector-curvature="0" />
    <path
       style="fill:none;stroke:#000000;stroke-width:1px;stroke-linecap:butt;stroke-linejoin:miter;stroke-opacity:1"
       d="m 396.4075,873.92581 v 79.72441 h 73.08069"
       id="path9685"
       sodipodi:nodetypes="ccc"
       inkscape:connector-curvature="0" />
    <path
       style="fill:none;stroke:#000000;stroke-width:1px;stroke-linecap:butt;stroke-linejoin:miter;stroke-opacity:1"
       d="m 383.1201,873.92581 v 97.44095 h 86.36809"
       id="path9687"
       sodipodi:nodetypes="ccc"
       inkscape:connector-curvature="0" />
    <path
       style="fill:none;stroke:#000000;stroke-width:1px;stroke-linecap:butt;stroke-linejoin:miter;stroke-opacity:1"
       d="m 368.85266,873.97081 0.98004,115.11248 h 99.65549"
       id="path9689"
       sodipodi:nodetypes="ccc"
       inkscape:connector-curvature="0" />
    <path
       style="fill:none;stroke:#000000;stroke-width:1px;stroke-linecap:butt;stroke-linejoin:miter;stroke-opacity:1"
       d="m 316.70981,874.68509 -0.0267,132.11471 h 152.80508"
       id="path9691"
       sodipodi:nodetypes="ccc"
       inkscape:connector-curvature="0" />
    <text
       id="text9693"
       y="922.6463"
       x="500.82135"
       style="font-style:normal;font-weight:normal;line-height:0%;font-family:'Bitstream Vera Sans';text-align:center;text-anchor:middle;fill:#000000;fill-opacity:1;stroke:none"
       xml:space="preserve"><tspan
         style="font-size:14px;line-height:1.25;text-align:end;text-anchor:end"
         y="922.6463"
         x="500.82135"
         id="tspan9695"
         sodipodi:role="line">U</tspan></text>
    <text
       xml:space="preserve"
       style="font-style:normal;font-weight:normal;line-height:0%;font-family:'Bitstream Vera Sans';text-align:center;text-anchor:middle;fill:#000000;fill-opacity:1;stroke:none"
       x="499.56354"
       y="940.36285"
       id="text9697"><tspan
         sodipodi:role="line"
         id="tspan9699"
         x="499.56354"
         y="940.36285"
         style="font-size:14px;line-height:1.25;text-align:end;text-anchor:end">WT</tspan></text>
    <text
       id="text9701"
       y="958.07935"
       x="500.41803"
       style="font-style:normal;font-weight:normal;line-height:0%;font-family:'Bitstream Vera Sans';text-align:center;text-anchor:middle;fill:#000000;fill-opacity:1;stroke:none"
       xml:space="preserve"><tspan
         style="font-size:14px;line-height:1.25;text-align:end;text-anchor:end"
         y="958.07935"
         x="500.41803"
         id="tspan9703"
         sodipodi:role="line">CD</tspan></text>
    <text
       xml:space="preserve"
       style="font-style:normal;font-weight:normal;line-height:0%;font-family:'Bitstream Vera Sans';text-align:center;text-anchor:middle;fill:#000000;fill-opacity:1;stroke:none"
       x="499.70709"
       y="975.7959"
       id="text9705"><tspan
         sodipodi:role="line"
         id="tspan9707"
         x="499.70709"
         y="975.7959"
         style="font-size:14px;line-height:1.25;text-align:end;text-anchor:end">A</tspan></text>
    <text
       id="text9709"
       y="993.51245"
       x="500.41803"
       style="font-style:normal;font-weight:normal;line-height:0%;font-family:'Bitstream Vera Sans';text-align:center;text-anchor:middle;fill:#000000;fill-opacity:1;stroke:none"
       xml:space="preserve"><tspan
         style="font-size:14px;line-height:1.25;text-align:end;text-anchor:end"
         y="993.51245"
         x="500.41803"
         id="tspan9711"
         sodipodi:role="line">D</tspan></text>
    <text
       xml:space="preserve"
       style="font-style:normal;font-weight:normal;line-height:0%;font-family:'Bitstream Vera Sans';text-align:center;text-anchor:middle;fill:#000000;fill-opacity:1;stroke:none"
       x="499.66608"
       y="1011.2289"
       id="text9713"><tspan
         sodipodi:role="line"
         id="tspan9715"
         x="499.66608"
         y="1011.2289"
         style="font-size:14px;line-height:1.25;text-align:end;text-anchor:end">AVL</tspan></text>
    <text
       xml:space="preserve"
       style="font-style:normal;font-weight:normal;line-height:0%;font-family:'Bitstream Vera Sans';text-align:start;text-anchor:start;fill:#000000;fill-opacity:1;stroke:none"
       x="504.92126"
       y="887.2132"
       id="text9717"><tspan
         sodipodi:role="line"
         id="tspan9719"
         x="504.92126"
         y="887.2132"
         style="font-size:14px;line-height:1.25;text-align:start;text-anchor:start">- Present</tspan></text>
    <text
       id="text9721"
       y="904.92975"
       x="504.92126"
       style="font-style:normal;font-weight:normal;line-height:0%;font-family:'Bitstream Vera Sans';text-align:start;text-anchor:start;fill:#000000;fill-opacity:1;stroke:none"
       xml:space="preserve"><tspan
         style="font-size:14px;line-height:1.25;text-align:start;text-anchor:start"
         y="904.92975"
         x="504.92126"
         id="tspan9723"
         sodipodi:role="line">- Writable</tspan></text>
    <text
       xml:space="preserve"
       style="font-style:normal;font-weight:normal;line-height:0%;font-family:'Bitstream Vera Sans';text-align:start;text-anchor:start;fill:#000000;fill-opacity:1;stroke:none"
       x="504.92126"
       y="922.6463"
       id="text9725"><tspan
         sodipodi:role="line"
         id="tspan9727"
         x="504.92126"
         y="922.6463"
         style="font-size:14px;line-height:1.25;text-align:start;text-anchor:start">- User</tspan></text>
    <text
       id="text9729"
       y="940.36285"
       x="504.92126"
       style="font-style:normal;font-weight:normal;line-height:0%;font-family:'Bitstream Vera Sans';text-align:start;text-anchor:start;fill:#000000;fill-opacity:1;stroke:none"
       xml:space="preserve"><tspan
         style="font-size:14px;line-height:1.25;text-align:start;text-anchor:start"
         y="940.36285"
         x="504.92126"
         id="tspan9731"
         sodipodi:role="line">- 1=Write-through, 0=Write-back</tspan></text>
    <text
       xml:space="preserve"
       style="font-style:normal;font-weight:normal;line-height:0%;font-family:'Bitstream Vera Sans';text-align:start;text-anchor:start;fill:#000000;fill-opacity:1;stroke:none"
       x="504.92126"
       y="958.07935"
       id="text9733"><tspan
         sodipodi:role="line"
         id="tspan9735"
         x="504.92126"
         y="958.07935"
         style="font-size:14px;line-height:1.25;text-align:start;text-anchor:start">- Cache Disabled</tspan></text>
    <text
       id="text9737"
       y="975.7959"
       x="504.92126"
       style="font-style:normal;font-weight:normal;line-height:0%;font-family:'Bitstream Vera Sans';text-align:start;text-anchor:start;fill:#000000;fill-opacity:1;stroke:none"
       xml:space="preserve"><tspan
         style="font-size:14px;line-height:1.25;text-align:start;text-anchor:start"
         y="975.7959"
         x="504.92126"
         id="tspan9739"
         sodipodi:role="line">- Accessed</tspan></text>
    <text
       xml:space="preserve"
       style="font-style:normal;font-weight:normal;line-height:0%;font-family:'Bitstream Vera Sans';text-align:start;text-anchor:start;fill:#000000;fill-opacity:1;stroke:none"
       x="504.92126"
       y="993.51245"
       id="text9741"><tspan
         sodipodi:role="line"
         id="tspan9743"
         x="504.92126"
         y="993.51245"
         style="font-size:14px;line-height:1.25;text-align:start;text-anchor:start">- Dirty (0 in page directory)</tspan></text>
    <text
       id="text9745"
       y="1011.2289"
       x="504.92126"
       style="font-style:normal;font-weight:normal;line-height:0%;font-family:'Bitstream Vera Sans';text-align:start;text-anchor:start;fill:#000000;fill-opacity:1;stroke:none"
       xml:space="preserve"><tspan
         style="font-size:14px;line-height:1.25;text-align:start;text-anchor:start"
         y="1011.2289"
         x="504.92126"
         id="tspan9747"
         sodipodi:role="line">- Available for system use</tspan></text>
    <rect
       y="369.01425"
       x="538.45557"
       height="26.574808"
       width="53.14959"
       id="rect9848"
       style="fill:#ffd1d1;fill-opacity:1;fill-rule:evenodd;stroke:#ff0000;stroke-width:1.05230856px;stroke-linecap:butt;stroke-linejoin:miter;stroke-opacity:1" />
    <text
       xml:space="preserve"
       style="font-style:normal;font-weight:normal;line-height:0%;font-family:'Bitstream Vera Sans';text-align:start;text-anchor:start;fill:#000000;fill-opacity:1;stroke:none"
       x="487.76529"
       y="364.58511"
       id="text9858"><tspan
         sodipodi:role="line"
         id="tspan9860"
         x="487.76529"
         y="364.58511"
         style="font-size:10px;line-height:1.25;text-align:start;text-anchor:start">20</tspan></text>
    <text
       id="text9862"
       y="347.16104"
       x="293.66302"
       style="font-style:normal;font-weight:normal;line-height:0%;font-family:'Bitstream Vera Sans';text-align:center;text-anchor:middle;fill:#000000;fill-opacity:1;stroke:none"
       xml:space="preserve"><tspan
         style="font-size:14px;line-height:1.25;text-align:center;text-anchor:middle"
         y="347.16104"
         x="293.66302"
         id="tspan9864"
         sodipodi:role="line">Virtual address</tspan></text>
    <text
       id="text9880"
       y="351.2977"
       x="520.39728"
       style="font-style:normal;font-weight:normal;line-height:0%;font-family:'Bitstream Vera Sans';text-align:center;text-anchor:middle;fill:#000000;fill-opacity:1;stroke:none"
       xml:space="preserve"><tspan
         style="font-size:14px;line-height:1.25;text-align:center;text-anchor:middle"
         y="351.2977"
         x="520.39728"
         id="tspan9882"
         sodipodi:role="line">Physical Address</tspan></text>
    <path
       sodipodi:nodetypes="cc"
       id="path9899"
       d="m 161.97916,382.30162 55.8071,10e-6"
       style="fill:none;stroke:#0000ff;stroke-width:1px;stroke-linecap:butt;stroke-linejoin:miter;stroke-opacity:1;marker-end:url(#Arrow2Lendo)"
       inkscape:connector-curvature="0" />
    <g
       transform="translate(-125.91453,87.321339)"
       id="g10877">
      <rect
         y="281.6929"
         x="345.47244"
         height="26.574793"
         width="141.73228"
         id="rect9834"
         style="fill:#cacaff;fill-opacity:1;fill-rule:evenodd;stroke:#0000ff;stroke-width:1.05230856px;stroke-linecap:butt;stroke-linejoin:miter;stroke-opacity:1" />
      <text
         id="text9840"
         y="277.26376"
         x="466.95074"
         style="font-style:normal;font-weight:normal;line-height:0%;font-family:'Bitstream Vera Sans';text-align:end;text-anchor:end;fill:#000000;fill-opacity:1;stroke:none"
         xml:space="preserve"><tspan
           style="font-size:10px;line-height:1.25;text-align:end;text-anchor:end"
           y="277.26376"
           x="466.95074"
           id="tspan9842"
           sodipodi:role="line">12</tspan></text>
      <text
         xml:space="preserve"
         style="font-style:normal;font-weight:normal;line-height:0%;font-family:'Bitstream Vera Sans';text-align:start;text-anchor:start;fill:#000000;fill-opacity:1;stroke:none"
         x="361.03607"
         y="277.26376"
         id="text9844"><tspan
           sodipodi:role="line"
           id="tspan9846"
           x="361.03607"
           y="277.26376"
           style="font-size:10px;line-height:1.25;text-align:start;text-anchor:start">10</tspan></text>
      <rect
         style="fill:#cacaff;fill-opacity:1;fill-rule:evenodd;stroke:#0000ff;stroke-width:1.05230856px;stroke-linecap:butt;stroke-linejoin:miter;stroke-opacity:1"
         id="rect10851"
         width="44.291336"
         height="26.574793"
         x="345.47244"
         y="281.6929" />
      <rect
         y="281.6929"
         x="389.76379"
         height="26.574793"
         width="44.291317"
         id="rect10853"
         style="fill:#cacaff;fill-opacity:1;fill-rule:evenodd;stroke:#0000ff;stroke-width:1.05230856px;stroke-linecap:butt;stroke-linejoin:miter;stroke-opacity:1" />
      <text
         id="text10855"
         y="299.40942"
         x="366.93793"
         style="font-style:normal;font-weight:normal;line-height:0%;font-family:'Bitstream Vera Sans';text-align:center;text-anchor:middle;fill:#000000;fill-opacity:1;stroke:none"
         xml:space="preserve"><tspan
           style="font-size:14px;line-height:1.25;text-align:center;text-anchor:middle"
           y="299.40942"
           x="366.93793"
           id="tspan10857"
           sodipodi:role="line">Dir</tspan></text>
      <text
         xml:space="preserve"
         style="font-style:normal;font-weight:normal;line-height:0%;font-family:'Bitstream Vera Sans';text-align:center;text-anchor:middle;fill:#000000;fill-opacity:1;stroke:none"
         x="412.30252"
         y="299.40942"
         id="text10859"><tspan
           sodipodi:role="line"
           id="tspan10861"
           x="412.30252"
           y="299.40942"
           style="font-size:14px;line-height:1.25;text-align:center;text-anchor:middle">Table</tspan></text>
      <rect
         style="fill:#cacaff;fill-opacity:1;fill-rule:evenodd;stroke:#0000ff;stroke-width:1.05230856px;stroke-linecap:butt;stroke-linejoin:miter;stroke-opacity:1"
         id="rect10867"
         width="53.149609"
         height="26.574793"
         x="434.05515"
         y="281.6929" />
      <text
         id="text10863"
         y="299.40942"
         x="460.40778"
         style="font-style:normal;font-weight:normal;line-height:0%;font-family:'Bitstream Vera Sans';text-align:center;text-anchor:middle;fill:#000000;fill-opacity:1;stroke:none"
         xml:space="preserve"><tspan
           style="font-size:14px;line-height:1.25;text-align:center;text-anchor:middle"
           y="299.40942"
           x="460.40778"
           id="tspan10865"
           sodipodi:role="line">Offset</tspan></text>
      <text
         id="text10869"
         y="277.26376"
         x="405.32742"
         style="font-style:normal;font-weight:normal;line-height:0%;font-family:'Bitstream Vera Sans';text-align:start;text-anchor:start;fill:#000000;fill-opacity:1;stroke:none"
         xml:space="preserve"><tspan
           style="font-size:10px;line-height:1.25;text-align:start;text-anchor:start"
           y="277.26376"
           x="405.32742"
           id="tspan10871"
           sodipodi:role="line">10</tspan></text>
    </g>
    <g
       transform="translate(-19.615351,60.74655)"
       id="g11148">
      <rect
         transform="matrix(0.74285708,0,0,1.1724136,436.71261,56.20425)"
         y="290.55115"
         x="62.007881"
         height="128.44489"
         width="155.01968"
         id="rect10921"
         style="color:#000000;display:inline;overflow:visible;visibility:visible;fill:#7f7f7f;fill-opacity:1;fill-rule:evenodd;stroke:none;stroke-width:1.09910035px;marker:none;filter:url(#filter3629-6);enable-background:accumulate" />
      <rect
         style="color:#000000;display:inline;overflow:visible;visibility:visible;fill:#ffffff;stroke:#000000;stroke-width:1.09910035px;stroke-linecap:butt;stroke-linejoin:miter;stroke-miterlimit:4;stroke-dasharray:none;stroke-dashoffset:0;stroke-opacity:1;marker:none;enable-background:accumulate"
         id="rect10923"
         width="115.15748"
         height="155.01967"
         x="478.34647"
         y="387.9921" />
      <rect
         style="color:#000000;display:inline;overflow:visible;visibility:visible;fill:#e6e6e6;fill-opacity:1;fill-rule:evenodd;stroke:none;stroke-width:1.09910035px;marker:none;enable-background:accumulate"
         id="rect10925"
         width="115.15743"
         height="22.067396"
         x="478.3465"
         y="498.72046" />
      <rect
         y="454.50739"
         x="478.34644"
         height="22.067396"
         width="115.15748"
         id="rect10927"
         style="color:#000000;display:inline;overflow:visible;visibility:visible;fill:#e6e6e6;fill-opacity:1;fill-rule:evenodd;stroke:none;stroke-width:1.09910035px;marker:none;enable-background:accumulate" />
      <path
         sodipodi:nodetypes="cc"
         id="path10945"
         d="m 549.21259,454.42911 v 88.58266"
         style="fill:none;stroke:#000000;stroke-width:1px;stroke-linecap:butt;stroke-linejoin:miter;stroke-opacity:1"
         inkscape:connector-curvature="0" />
      <rect
         style="color:#000000;display:inline;overflow:visible;visibility:visible;fill:#e6e6e6;fill-opacity:1;fill-rule:evenodd;stroke:#000000;stroke-width:1.09910035px;marker:none;enable-background:accumulate"
         id="rect10977"
         width="115.15748"
         height="22.067396"
         x="478.34644"
         y="410.21606" />
      <rect
         y="387.9921"
         x="478.34647"
         height="155.01967"
         width="115.15748"
         id="rect10929"
         style="color:#000000;display:inline;overflow:visible;visibility:visible;fill:none;stroke:#000000;stroke-width:1.09910035px;stroke-linecap:butt;stroke-linejoin:miter;stroke-miterlimit:4;stroke-dasharray:none;stroke-dashoffset:0;stroke-opacity:1;marker:none;enable-background:accumulate" />
      <path
         style="fill:none;stroke:#000000;stroke-width:1px;stroke-linecap:butt;stroke-linejoin:miter;stroke-opacity:1"
         d="m 549.21259,387.9921 v 44.29134"
         id="path10981"
         sodipodi:nodetypes="cc"
         inkscape:connector-curvature="0" />
      <path
         sodipodi:nodetypes="cc"
         id="path10995"
         d="m 549.21261,432.28344 v 22.14567"
         style="color:#000000;display:inline;overflow:visible;visibility:visible;fill:none;stroke:#000000;stroke-width:1;stroke-linecap:butt;stroke-linejoin:miter;stroke-miterlimit:4;stroke-dasharray:1, 2;stroke-dashoffset:0;stroke-opacity:1;marker:none;enable-background:accumulate"
         inkscape:connector-curvature="0" />
      <text
         xml:space="preserve"
         style="font-style:normal;font-weight:normal;line-height:0%;font-family:'Bitstream Vera Sans';text-align:end;text-anchor:end;fill:#000000;fill-opacity:1;stroke:none"
         x="475.0755"
         y="536.94879"
         id="text10983"><tspan
           sodipodi:role="line"
           id="tspan10985"
           x="475.0755"
           y="536.94879"
           style="font-size:14px;line-height:1.25;text-align:end;text-anchor:end">0</tspan></text>
      <text
         id="text10987"
         y="514.8031"
         x="475.0755"
         style="font-style:normal;font-weight:normal;line-height:0%;font-family:'Bitstream Vera Sans';text-align:end;text-anchor:end;fill:#000000;fill-opacity:1;stroke:none"
         xml:space="preserve"><tspan
           style="font-size:14px;line-height:1.25;text-align:end;text-anchor:end"
           y="514.8031"
           x="475.0755"
           id="tspan10989"
           sodipodi:role="line">1</tspan></text>
      <text
         xml:space="preserve"
         style="font-style:normal;font-weight:normal;line-height:0%;font-family:'Bitstream Vera Sans';text-align:end;text-anchor:end;fill:#000000;fill-opacity:1;stroke:none"
         x="475.0755"
         y="404.8031"
         id="text10991"><tspan
           sodipodi:role="line"
           id="tspan10993"
           x="475.0755"
           y="404.8031"
           style="font-size:14px;line-height:1.25;text-align:end;text-anchor:end">1023</tspan></text>
      <text
         id="text10931"
         y="426.27313"
         x="514.17767"
         style="font-style:normal;font-weight:normal;line-height:0%;font-family:'Bitstream Vera Sans';fill:#000000;fill-opacity:1;stroke:none"
         xml:space="preserve"><tspan
           style="font-size:14px;line-height:1.25;text-align:center;text-anchor:middle"
           y="426.27313"
           x="514.17767"
           id="tspan10933"
           sodipodi:role="line">PPN</tspan></text>
      <text
         id="text10939"
         y="426.27313"
         x="571.11011"
         style="font-style:normal;font-weight:normal;line-height:0%;font-family:'Bitstream Vera Sans';fill:#000000;fill-opacity:1;stroke:none"
         xml:space="preserve"><tspan
           style="font-size:14px;line-height:1.25;text-align:center;text-anchor:middle"
           y="426.27313"
           x="571.11011"
           id="tspan10941"
           sodipodi:role="line">Flags</tspan></text>
      <path
         style="fill:none;stroke:#000000;stroke-width:1px;stroke-linecap:butt;stroke-linejoin:miter;stroke-opacity:1;marker-end:url(#Arrow1Mend)"
         d="M 470.7381,498.72044 V 481.00391"
         id="path9949-2-4"
         inkscape:connector-curvature="0" />
      <text
         id="text13420-7-7"
         y="383.56296"
         x="514.14594"
         style="font-style:normal;font-weight:normal;line-height:0%;font-family:'Bitstream Vera Sans';fill:#000000;fill-opacity:1;stroke:none"
         xml:space="preserve"><tspan
           style="font-size:10px;line-height:1.25;text-align:center;text-anchor:middle"
           y="383.56296"
           x="514.14594"
           id="tspan13422-1-2"
           sodipodi:role="line">20</tspan></text>
      <text
         xml:space="preserve"
         style="font-style:normal;font-weight:normal;line-height:0%;font-family:'Bitstream Vera Sans';fill:#000000;fill-opacity:1;stroke:none"
         x="571.40552"
         y="383.56296"
         id="text13449-7"><tspan
           sodipodi:role="line"
           id="tspan13451-2"
           x="571.40552"
           y="383.56296"
           style="font-size:10px;line-height:1.25;text-align:center;text-anchor:middle">12</tspan></text>
    </g>
    <rect
       style="fill:#ffd1d1;fill-opacity:1;fill-rule:evenodd;stroke:#ff0000;stroke-width:1.05230856px;stroke-linecap:butt;stroke-linejoin:miter;stroke-opacity:1"
       id="rect11018"
       width="88.582672"
       height="26.574808"
       x="449.87289"
       y="369.01425" />
    <text
       id="text11020"
       y="364.58511"
       x="558.61676"
       style="font-style:normal;font-weight:normal;line-height:0%;font-family:'Bitstream Vera Sans';text-align:start;text-anchor:start;fill:#000000;fill-opacity:1;stroke:none"
       xml:space="preserve"><tspan
         style="font-size:10px;line-height:1.25;text-align:start;text-anchor:start"
         y="364.58511"
         x="558.61676"
         id="tspan11022"
         sodipodi:role="line">12</tspan></text>
    <text
       xml:space="preserve"
       style="font-style:normal;font-weight:normal;line-height:0%;font-family:'Bitstream Vera Sans';text-align:center;text-anchor:middle;fill:#000000;fill-opacity:1;stroke:none"
       x="493.48404"
       y="386.73077"
       id="text11038"><tspan
         sodipodi:role="line"
         id="tspan11040"
         x="493.48404"
         y="386.73077"
         style="font-size:14px;line-height:1.25;text-align:center;text-anchor:middle">PPN</tspan></text>
    <text
       id="text10863-3"
       y="386.73077"
       x="564.80817"
       style="font-style:normal;font-weight:normal;line-height:0%;font-family:'Bitstream Vera Sans';text-align:center;text-anchor:middle;fill:#000000;fill-opacity:1;stroke:none"
       xml:space="preserve"><tspan
         style="font-size:14px;line-height:1.25;text-align:center;text-anchor:middle"
         y="386.73077"
         x="564.80817"
         id="tspan10865-0"
         sodipodi:role="line">Offset</tspan></text>
    <g
       transform="translate(-196.7807,158.18748)"
       id="g11169">
      <rect
         style="color:#000000;display:inline;overflow:visible;visibility:visible;fill:#7f7f7f;fill-opacity:1;fill-rule:evenodd;stroke:none;stroke-width:1.09910035px;marker:none;filter:url(#filter3629-6);enable-background:accumulate"
         id="rect11171"
         width="155.01968"
         height="128.44489"
         x="62.007881"
         y="290.55115"
         transform="matrix(0.74285708,0,0,1.1724136,436.71261,56.20425)" />
      <rect
         y="387.9921"
         x="478.34647"
         height="155.01967"
         width="115.15748"
         id="rect11173"
         style="color:#000000;display:inline;overflow:visible;visibility:visible;fill:#ffffff;stroke:#000000;stroke-width:1.09910035px;stroke-linecap:butt;stroke-linejoin:miter;stroke-miterlimit:4;stroke-dasharray:none;stroke-dashoffset:0;stroke-opacity:1;marker:none;enable-background:accumulate" />
      <rect
         y="498.72046"
         x="478.3465"
         height="22.067396"
         width="115.15743"
         id="rect11175"
         style="color:#000000;display:inline;overflow:visible;visibility:visible;fill:#e6e6e6;fill-opacity:1;fill-rule:evenodd;stroke:none;stroke-width:1.09910035px;marker:none;enable-background:accumulate" />
      <rect
         style="color:#000000;display:inline;overflow:visible;visibility:visible;fill:#e6e6e6;fill-opacity:1;fill-rule:evenodd;stroke:#000000;stroke-width:1.09910035px;marker:none;enable-background:accumulate"
         id="rect11177"
         width="115.15748"
         height="22.067396"
         x="478.34644"
         y="454.50739" />
      <text
         xml:space="preserve"
         style="font-style:normal;font-weight:normal;line-height:0%;font-family:'Bitstream Vera Sans';fill:#000000;fill-opacity:1;stroke:none"
         x="514.17767"
         y="470.85718"
         id="text11179"><tspan
           sodipodi:role="line"
           id="tspan11181"
           x="514.17767"
           y="470.85718"
           style="font-size:14px;line-height:1.25;text-align:center;text-anchor:middle">PPN</tspan></text>
      <text
         xml:space="preserve"
         style="font-style:normal;font-weight:normal;line-height:0%;font-family:'Bitstream Vera Sans';fill:#000000;fill-opacity:1;stroke:none"
         x="571.11011"
         y="470.85718"
         id="text11183"><tspan
           sodipodi:role="line"
           id="tspan11185"
           x="571.11011"
           y="470.85718"
           style="font-size:14px;line-height:1.25;text-align:center;text-anchor:middle">Flags</tspan></text>
      <path
         style="fill:none;stroke:#000000;stroke-width:1px;stroke-linecap:butt;stroke-linejoin:miter;stroke-opacity:1"
         d="m 549.21259,454.42911 v 88.58266"
         id="path11187"
         sodipodi:nodetypes="cc"
         inkscape:connector-curvature="0" />
      <rect
         y="410.21606"
         x="478.34644"
         height="22.067396"
         width="115.15748"
         id="rect11189"
         style="color:#000000;display:inline;overflow:visible;visibility:visible;fill:#e6e6e6;fill-opacity:1;fill-rule:evenodd;stroke:none;stroke-width:1.09910035px;marker:none;enable-background:accumulate" />
      <rect
         style="color:#000000;display:inline;overflow:visible;visibility:visible;fill:none;stroke:#000000;stroke-width:1.09910035px;stroke-linecap:butt;stroke-linejoin:miter;stroke-miterlimit:4;stroke-dasharray:none;stroke-dashoffset:0;stroke-opacity:1;marker:none;enable-background:accumulate"
         id="rect11191"
         width="115.15748"
         height="155.01967"
         x="478.34647"
         y="387.9921" />
      <path
         sodipodi:nodetypes="cc"
         id="path11193"
         d="m 549.21259,387.9921 v 44.29134"
         style="fill:none;stroke:#000000;stroke-width:1px;stroke-linecap:butt;stroke-linejoin:miter;stroke-opacity:1"
         inkscape:connector-curvature="0" />
      <path
         style="color:#000000;display:inline;overflow:visible;visibility:visible;fill:none;stroke:#000000;stroke-width:1;stroke-linecap:butt;stroke-linejoin:miter;stroke-miterlimit:4;stroke-dasharray:1, 2;stroke-dashoffset:0;stroke-opacity:1;marker:none;enable-background:accumulate"
         d="m 549.21261,432.28344 v 22.14567"
         id="path11195"
         sodipodi:nodetypes="cc"
         inkscape:connector-curvature="0" />
      <text
         id="text11197"
         y="536.94879"
         x="475.0755"
         style="font-style:normal;font-weight:normal;line-height:0%;font-family:'Bitstream Vera Sans';text-align:end;text-anchor:end;fill:#000000;fill-opacity:1;stroke:none"
         xml:space="preserve"><tspan
           style="font-size:14px;line-height:1.25;text-align:end;text-anchor:end"
           y="536.94879"
           x="475.0755"
           id="tspan11199"
           sodipodi:role="line">0</tspan></text>
      <text
         xml:space="preserve"
         style="font-style:normal;font-weight:normal;line-height:0%;font-family:'Bitstream Vera Sans';text-align:end;text-anchor:end;fill:#000000;fill-opacity:1;stroke:none"
         x="475.0755"
         y="514.8031"
         id="text11201"><tspan
           sodipodi:role="line"
           id="tspan11203"
           x="475.0755"
           y="514.8031"
           style="font-size:14px;line-height:1.25;text-align:end;text-anchor:end">1</tspan></text>
      <text
         id="text11205"
         y="404.8031"
         x="475.0755"
         style="font-style:normal;font-weight:normal;line-height:0%;font-family:'Bitstream Vera Sans';text-align:end;text-anchor:end;fill:#000000;fill-opacity:1;stroke:none"
         xml:space="preserve"><tspan
           style="font-size:14px;line-height:1.25;text-align:end;text-anchor:end"
           y="404.8031"
           x="475.0755"
           id="tspan11207"
           sodipodi:role="line">1023</tspan></text>
      <path
         style="fill:none;stroke:#000000;stroke-width:1px;stroke-linecap:butt;stroke-linejoin:miter;stroke-opacity:1;marker-end:url(#Arrow1Mend)"
         d="M 470.7381,498.72044 V 481.00391"
         id="path9949-2"
         inkscape:connector-curvature="0" />
      <text
         id="text13420-7"
         y="383.56296"
         x="514.14594"
         style="font-style:normal;font-weight:normal;line-height:0%;font-family:'Bitstream Vera Sans';fill:#000000;fill-opacity:1;stroke:none"
         xml:space="preserve"><tspan
           style="font-size:10px;line-height:1.25;text-align:center;text-anchor:middle"
           y="383.56296"
           x="514.14594"
           id="tspan13422-1"
           sodipodi:role="line">20</tspan></text>
      <text
         xml:space="preserve"
         style="font-style:normal;font-weight:normal;line-height:0%;font-family:'Bitstream Vera Sans';fill:#000000;fill-opacity:1;stroke:none"
         x="571.40552"
         y="383.56296"
         id="text13449"><tspan
           sodipodi:role="line"
           id="tspan13451"
           x="571.40552"
           y="383.56296"
           style="font-size:10px;line-height:1.25;text-align:center;text-anchor:middle">12</tspan></text>
    </g>
    <path
       sodipodi:nodetypes="ccc"
       style="color:#000000;display:inline;overflow:visible;visibility:visible;fill:none;stroke:#ff0000;stroke-width:1px;stroke-linecap:butt;stroke-linejoin:miter;stroke-miterlimit:4;stroke-dasharray:none;stroke-dashoffset:0;stroke-opacity:1;marker:none;marker-start:url(#DotLTe);marker-end:url(#Arrow2LendoAY0);enable-background:accumulate"
       d="m 316.99883,612.61659 v -8.85826 h 139.96063"
       id="path11209"
       inkscape:connector-curvature="0" />
    <path
       style="fill:none;stroke:#0000ff;stroke-width:1px;stroke-linecap:butt;stroke-linejoin:miter;stroke-opacity:1;marker-end:url(#Arrow2Lendo)"
       d="m 241.70358,395.58903 v 227.65748 h 24.80315"
       id="path12062"
       sodipodi:nodetypes="ccc"
       inkscape:connector-curvature="0" />
    <path
       sodipodi:nodetypes="ccc"
       id="path12064"
       d="m 285.99492,395.58903 v 85.9252 H 441.0146"
       style="fill:none;stroke:#0000ff;stroke-width:1px;stroke-linecap:butt;stroke-linejoin:miter;stroke-opacity:1;marker-end:url(#Arrow2Lendo)"
       inkscape:connector-curvature="0" />
    <g
       transform="translate(-134.7728,87.321345)"
       id="g12900">
      <path
         id="path12066"
         d="m 469,308.28125 v 17.6875 0.5 h 0.5 230.3125 0.5 v -0.5 -15.9375 h -1 v 15.4375 H 470 v -17.1875 z"
         style="color:#000000;font-style:normal;font-variant:normal;font-weight:normal;font-stretch:normal;font-size:medium;line-height:normal;font-family:'Bitstream Vera Sans';-inkscape-font-specification:'Bitstream Vera Sans';text-indent:0;text-align:start;text-decoration:none;text-decoration-line:none;letter-spacing:normal;word-spacing:normal;text-transform:none;writing-mode:lr-tb;direction:ltr;text-anchor:start;display:inline;overflow:visible;visibility:visible;fill:url(#linearGradient12906);fill-opacity:1;stroke:none;stroke-width:1px;marker:none;enable-background:accumulate"
         inkscape:connector-curvature="0" />
      <path
         id="path12908"
         style="font-size:12px;fill:#ff0000;fill-opacity:1;fill-rule:evenodd;stroke:#ff0000;stroke-width:0.6875;stroke-linejoin:round;stroke-opacity:1"
         d="m 695.36604,320.7298 4.4195,-12.01847 4.41949,12.01847 c -2.60927,-1.92005 -6.1792,-1.90899 -8.83899,0 z"
         inkscape:connector-curvature="0" />
    </g>
    <path
       id="path12935"
       d="M 494.16421,470.88431 V 397.36069"
       style="color:#000000;display:inline;overflow:visible;visibility:visible;fill:none;stroke:#ff0000;stroke-width:1px;stroke-linecap:butt;stroke-linejoin:miter;stroke-miterlimit:4;stroke-dasharray:none;stroke-dashoffset:0;stroke-opacity:1;marker:none;marker-start:url(#DotLTe);marker-end:url(#Arrow2LendoAY0);enable-background:accumulate"
       sodipodi:nodetypes="cc"
       inkscape:connector-curvature="0" />
    <text
       xml:space="preserve"
       style="font-style:normal;font-weight:normal;line-height:0%;font-family:'Bitstream Vera Sans';fill:#000000;fill-opacity:1;stroke:none"
       x="338.66599"
       y="718.91577"
       id="text12937"><tspan
         sodipodi:role="line"
         id="tspan12939"
         x="338.66599"
         y="718.91577"
         style="font-size:14px;line-height:1.25;text-align:center;text-anchor:middle">Page Directory</tspan></text>
    <text
       id="text12941"
       y="621.47485"
       x="515.99542"
       style="font-style:normal;font-weight:normal;line-height:0%;font-family:'Bitstream Vera Sans';fill:#000000;fill-opacity:1;stroke:none"
       xml:space="preserve"><tspan
         style="font-size:14px;line-height:1.25;text-align:center;text-anchor:middle"
         y="621.47485"
         x="515.99542"
         id="tspan12943"
         sodipodi:role="line">Page Table</tspan></text>
    <rect
       style="color:#000000;display:inline;overflow:visible;visibility:visible;fill:#7f7f7f;fill-opacity:1;fill-rule:evenodd;stroke:none;stroke-width:1.09910035px;marker:none;filter:url(#filter13083);enable-background:accumulate"
       id="rect11171-8"
       width="79.724449"
       height="22.145634"
       x="148.69177"
       y="694.341" />
    <rect
       style="color:#000000;display:inline;overflow:visible;visibility:visible;fill:#ffffff;stroke:#000000;stroke-width:1.09910035px;stroke-linecap:butt;stroke-linejoin:miter;stroke-miterlimit:4;stroke-dasharray:none;stroke-dashoffset:0;stroke-opacity:1;marker:none;enable-background:accumulate"
       id="rect11191-4"
       width="79.724419"
       height="22.14566"
       x="144.26263"
       y="689.91187" />
    <text
       id="text9951-3"
       y="706.08093"
       x="184.29575"
       style="font-style:normal;font-weight:normal;line-height:0%;font-family:'Bitstream Vera Sans';fill:#000000;fill-opacity:1;stroke:none"
       xml:space="preserve"><tspan
         style="font-size:14px;line-height:1.25;text-align:center;text-anchor:middle"
         y="706.08093"
         x="184.29575"
         id="tspan9953-1"
         sodipodi:role="line">CR3</tspan></text>
    <path
       id="path13087"
       d="m 223.98704,701.19927 h 55.80709"
       style="color:#000000;display:inline;overflow:visible;visibility:visible;fill:none;stroke:#ff0000;stroke-width:1px;stroke-linecap:butt;stroke-linejoin:miter;stroke-miterlimit:4;stroke-dasharray:none;stroke-dashoffset:0;stroke-opacity:1;marker:none;marker-end:url(#Arrow2LendoAY0);enable-background:accumulate"
       sodipodi:nodetypes="cc"
       inkscape:connector-curvature="0" />
    <text
       xml:space="preserve"
       style="font-style:normal;font-weight:normal;line-height:0%;font-family:'Bitstream Vera Sans';text-align:start;text-anchor:start;fill:#000000;fill-opacity:1;stroke:none"
       x="35.433071"
       y="896.07147"
       id="text13404"><tspan
         sodipodi:role="line"
         id="tspan13406"
         x="35.433071"
         y="896.07147"
         style="font-size:14px;line-height:1.25;text-align:start;text-anchor:start">Page table and page directory</tspan><tspan
         id="tspan13408"
         sodipodi:role="line"
         x="35.433071"
         y="913.57147"
         style="font-size:14px;line-height:1.25;text-align:start;text-anchor:start">entries are identical except for </tspan><tspan
         id="tspan13410"
         sodipodi:role="line"
         x="35.433071"
         y="931.07147"
         style="font-size:14px;line-height:1.25;text-align:start;text-anchor:start">the D bit.</tspan></text>
    <g
       id="g13505"
       transform="matrix(0.36111114,0,0,0.36111114,285.9949,561.091)">
      <rect
         style="color:#000000;display:inline;overflow:visible;visibility:visible;fill:#7f7f7f;fill-opacity:1;fill-rule:evenodd;stroke:none;stroke-width:1.09910035px;marker:none;filter:url(#filter3629-6);enable-background:accumulate"
         id="rect13507"
         width="155.01968"
         height="128.44489"
         x="62.007881"
         y="290.55115"
         transform="matrix(0.74285708,0,0,1.1724136,436.71261,56.20425)" />
      <rect
         y="387.9921"
         x="478.34647"
         height="155.01967"
         width="115.15748"
         id="rect13509"
         style="color:#000000;display:inline;overflow:visible;visibility:visible;fill:#ffffff;stroke:#000000;stroke-width:3.04366231px;stroke-linecap:butt;stroke-linejoin:miter;stroke-miterlimit:4;stroke-dasharray:none;stroke-dashoffset:0;stroke-opacity:1;marker:none;enable-background:accumulate" />
      <rect
         y="498.72046"
         x="478.3465"
         height="22.067396"
         width="115.15743"
         id="rect13511"
         style="color:#000000;display:inline;overflow:visible;visibility:visible;fill:#e6e6e6;fill-opacity:1;fill-rule:evenodd;stroke:none;stroke-width:1.09910035px;marker:none;enable-background:accumulate" />
      <rect
         style="color:#000000;display:inline;overflow:visible;visibility:visible;fill:#e6e6e6;fill-opacity:1;fill-rule:evenodd;stroke:none;stroke-width:1.09910035px;marker:none;enable-background:accumulate"
         id="rect13513"
         width="115.15748"
         height="22.067396"
         x="478.34644"
         y="454.50739" />
      <path
         style="fill:none;stroke:#000000;stroke-width:2.7692306px;stroke-linecap:butt;stroke-linejoin:miter;stroke-opacity:1"
         d="m 549.21259,454.42911 v 88.58266"
         id="path13515"
         sodipodi:nodetypes="cc"
         inkscape:connector-curvature="0" />
      <rect
         y="410.21606"
         x="478.34644"
         height="22.067396"
         width="115.15748"
         id="rect13517"
         style="color:#000000;display:inline;overflow:visible;visibility:visible;fill:#e6e6e6;fill-opacity:1;fill-rule:evenodd;stroke:none;stroke-width:1.09910035px;marker:none;enable-background:accumulate" />
      <rect
         style="color:#000000;display:inline;overflow:visible;visibility:visible;fill:none;stroke:#000000;stroke-width:3.04366231px;stroke-linecap:butt;stroke-linejoin:miter;stroke-miterlimit:4;stroke-dasharray:none;stroke-dashoffset:0;stroke-opacity:1;marker:none;enable-background:accumulate"
         id="rect13519"
         width="115.15748"
         height="155.01967"
         x="478.34647"
         y="387.9921" />
      <path
         sodipodi:nodetypes="cc"
         id="path13521"
         d="m 549.21259,387.9921 v 44.29134"
         style="fill:none;stroke:#000000;stroke-width:2.7692306px;stroke-linecap:butt;stroke-linejoin:miter;stroke-opacity:1"
         inkscape:connector-curvature="0" />
      <path
         style="color:#000000;display:inline;overflow:visible;visibility:visible;fill:none;stroke:#000000;stroke-width:2.7692306;stroke-linecap:butt;stroke-linejoin:miter;stroke-miterlimit:4;stroke-dasharray:2.76923053, 5.53846106;stroke-dashoffset:0;stroke-opacity:1;marker:none;enable-background:accumulate"
         d="m 549.21261,432.28344 v 22.14567"
         id="path13523"
         sodipodi:nodetypes="cc"
         inkscape:connector-curvature="0" />
    </g>
    <path
       id="path13575"
       d="m 316.99885,690.56934 h 101.87008 v 66.43701 h 38.09055"
       style="color:#000000;display:inline;overflow:visible;visibility:visible;fill:none;stroke:#ff9999;stroke-width:1px;stroke-linecap:butt;stroke-linejoin:miter;stroke-miterlimit:4;stroke-dasharray:none;stroke-dashoffset:0;stroke-opacity:1;marker:none;marker-start:url(#DotLTe6);marker-end:url(#Arrow2LendoAY0I);enable-background:accumulate"
       sodipodi:nodetypes="cccc"
       inkscape:connector-curvature="0" />
    <g
       transform="matrix(0.36111114,0,0,0.36111114,285.9949,494.65399)"
       id="g14467">
      <rect
         transform="matrix(0.74285708,0,0,1.1724136,436.71261,56.20425)"
         y="290.55115"
         x="62.007881"
         height="128.44489"
         width="155.01968"
         id="rect14469"
         style="color:#000000;display:inline;overflow:visible;visibility:visible;fill:#7f7f7f;fill-opacity:1;fill-rule:evenodd;stroke:none;stroke-width:1.09910035px;marker:none;filter:url(#filter3629-6);enable-background:accumulate" />
      <rect
         style="color:#000000;display:inline;overflow:visible;visibility:visible;fill:#ffffff;stroke:#000000;stroke-width:3.04366231px;stroke-linecap:butt;stroke-linejoin:miter;stroke-miterlimit:4;stroke-dasharray:none;stroke-dashoffset:0;stroke-opacity:1;marker:none;enable-background:accumulate"
         id="rect14471"
         width="115.15748"
         height="155.01967"
         x="478.34647"
         y="387.9921" />
      <rect
         style="color:#000000;display:inline;overflow:visible;visibility:visible;fill:#e6e6e6;fill-opacity:1;fill-rule:evenodd;stroke:none;stroke-width:1.09910035px;marker:none;enable-background:accumulate"
         id="rect14473"
         width="115.15743"
         height="22.067396"
         x="478.3465"
         y="498.72046" />
      <rect
         y="454.50739"
         x="478.34644"
         height="22.067396"
         width="115.15748"
         id="rect14475"
         style="color:#000000;display:inline;overflow:visible;visibility:visible;fill:#e6e6e6;fill-opacity:1;fill-rule:evenodd;stroke:none;stroke-width:1.09910035px;marker:none;enable-background:accumulate" />
      <path
         sodipodi:nodetypes="cc"
         id="path14477"
         d="m 549.21259,454.42911 v 88.58266"
         style="fill:none;stroke:#000000;stroke-width:2.7692306px;stroke-linecap:butt;stroke-linejoin:miter;stroke-opacity:1"
         inkscape:connector-curvature="0" />
      <rect
         style="color:#000000;display:inline;overflow:visible;visibility:visible;fill:#e6e6e6;fill-opacity:1;fill-rule:evenodd;stroke:none;stroke-width:1.09910035px;marker:none;enable-background:accumulate"
         id="rect14479"
         width="115.15748"
         height="22.067396"
         x="478.34644"
         y="410.21606" />
      <rect
         y="387.9921"
         x="478.34647"
         height="155.01967"
         width="115.15748"
         id="rect14481"
         style="color:#000000;display:inline;overflow:visible;visibility:visible;fill:none;stroke:#000000;stroke-width:3.04366231px;stroke-linecap:butt;stroke-linejoin:miter;stroke-miterlimit:4;stroke-dasharray:none;stroke-dashoffset:0;stroke-opacity:1;marker:none;enable-background:accumulate" />
      <path
         style="fill:none;stroke:#000000;stroke-width:2.7692306px;stroke-linecap:butt;stroke-linejoin:miter;stroke-opacity:1"
         d="m 549.21259,387.9921 v 44.29134"
         id="path14483"
         sodipodi:nodetypes="cc"
         inkscape:connector-curvature="0" />
      <path
         sodipodi:nodetypes="cc"
         id="path14485"
         d="m 549.21261,432.28344 v 22.14567"
         style="color:#000000;display:inline;overflow:visible;visibility:visible;fill:none;stroke:#000000;stroke-width:2.7692306;stroke-linecap:butt;stroke-linejoin:miter;stroke-miterlimit:4;stroke-dasharray:2.76923053, 5.53846106;stroke-dashoffset:0;stroke-opacity:1;marker:none;enable-background:accumulate"
         inkscape:connector-curvature="0" />
    </g>
    <path
       sodipodi:nodetypes="cccc"
       style="color:#000000;display:inline;overflow:visible;visibility:visible;fill:none;stroke:#ff9999;stroke-width:1px;stroke-linecap:butt;stroke-linejoin:miter;stroke-miterlimit:4;stroke-dasharray:none;stroke-dashoffset:0;stroke-opacity:1;marker:none;marker-start:url(#DotLTe6);marker-end:url(#Arrow2LendoAY0I);enable-background:accumulate"
       d="m 316.99885,668.56934 h 119.58662 v 22 h 20.37401"
       id="path14487"
       inkscape:connector-curvature="0" />
  </g>
</svg>
