<?xml version="1.0" encoding="UTF-8" standalone="no"?>
<!-- Created with Inkscape (http://www.inkscape.org/) -->

<svg
   xmlns:dc="http://purl.org/dc/elements/1.1/"
   xmlns:cc="http://creativecommons.org/ns#"
   xmlns:rdf="http://www.w3.org/1999/02/22-rdf-syntax-ns#"
   xmlns:svg="http://www.w3.org/2000/svg"
   xmlns="http://www.w3.org/2000/svg"
   xmlns:sodipodi="http://sodipodi.sourceforge.net/DTD/sodipodi-0.dtd"
   xmlns:inkscape="http://www.inkscape.org/namespaces/inkscape"
   width="739.86786"
   height="797.77533"
   id="svg3255"
   version="1.1"
   inkscape:version="0.92.3 (2405546, 2018-03-11)"
   sodipodi:docname="xv6_layout.svg">
  <defs
     id="defs3257">
    <marker
       inkscape:stockid="Arrow1Mend"
       orient="auto"
       refY="0"
       refX="0"
       id="Arrow1Mend"
       style="overflow:visible">
      <path
         id="path4465"
         d="M 0,0 5,-5 -12.5,0 5,5 Z"
         style="fill-rule:evenodd;stroke:#000000;stroke-width:1.00000003pt;marker-start:none"
         transform="matrix(-0.4,0,0,-0.4,-4,0)"
         inkscape:connector-curvature="0" />
    </marker>
    <linearGradient
       id="linearGradient4342">
      <stop
         style="stop-color:#cdffca;stop-opacity:1"
         offset="0"
         id="stop4344" />
      <stop
         style="stop-color:#f9fff7;stop-opacity:1"
         offset="1"
         id="stop4346" />
    </linearGradient>
    <inkscape:perspective
       sodipodi:type="inkscape:persp3d"
       inkscape:vp_x="0 : 526.18109 : 1"
       inkscape:vp_y="0 : 1000 : 0"
       inkscape:vp_z="744.09448 : 526.18109 : 1"
       inkscape:persp3d-origin="372.04724 : 350.78739 : 1"
       id="perspective3263" />
    <inkscape:perspective
       id="perspective4440"
       inkscape:persp3d-origin="0.5 : 0.33333333 : 1"
       inkscape:vp_z="1 : 0.5 : 1"
       inkscape:vp_y="0 : 1000 : 0"
       inkscape:vp_x="0 : 0.5 : 1"
       sodipodi:type="inkscape:persp3d" />
    <inkscape:perspective
       id="perspective4984"
       inkscape:persp3d-origin="0.5 : 0.33333333 : 1"
       inkscape:vp_z="1 : 0.5 : 1"
       inkscape:vp_y="0 : 1000 : 0"
       inkscape:vp_x="0 : 0.5 : 1"
       sodipodi:type="inkscape:persp3d" />
    <inkscape:perspective
       id="perspective5382"
       inkscape:persp3d-origin="0.5 : 0.33333333 : 1"
       inkscape:vp_z="1 : 0.5 : 1"
       inkscape:vp_y="0 : 1000 : 0"
       inkscape:vp_x="0 : 0.5 : 1"
       sodipodi:type="inkscape:persp3d" />
    <inkscape:perspective
       id="perspective5405"
       inkscape:persp3d-origin="0.5 : 0.33333333 : 1"
       inkscape:vp_z="1 : 0.5 : 1"
       inkscape:vp_y="0 : 1000 : 0"
       inkscape:vp_x="0 : 0.5 : 1"
       sodipodi:type="inkscape:persp3d" />
    <pattern
       patternUnits="userSpaceOnUse"
       width="20"
       height="20"
       patternTransform="translate(520,405)"
       id="pattern5485">
      <g
         id="g5479"
         transform="translate(-520,-405)">
        <path
           style="color:#000000;fill:#e4ffe2;fill-opacity:1;fill-rule:nonzero;stroke:none;stroke-width:1px;marker:none;visibility:visible;display:inline;overflow:visible;enable-background:accumulate"
           d="m 520,405 0,10 10,-10 -10,0 z"
           id="rect5372" />
        <path
           style="color:#000000;fill:#e2e2ff;fill-opacity:1;fill-rule:nonzero;stroke:none;stroke-width:1px;marker:none;visibility:visible;display:inline;overflow:visible;enable-background:accumulate"
           d="m 530,405 -10,10 0,10 20,-20 -10,0 z"
           id="rect5395" />
        <path
           style="color:#000000;fill:#e4ffe2;fill-opacity:1;fill-rule:nonzero;stroke:none;stroke-width:1px;marker:none;visibility:visible;display:inline;overflow:visible;enable-background:accumulate"
           d="m 540,405 -20,20 10,0 10,-10 0,-10 z"
           id="rect5418" />
        <path
           style="color:#000000;fill:#e2e2ff;fill-opacity:1;fill-rule:nonzero;stroke:none;stroke-width:1px;marker:none;visibility:visible;display:inline;overflow:visible;enable-background:accumulate"
           d="m 540,415 -10,10 10,0 0,-10 z"
           id="rect5420" />
      </g>
    </pattern>
    <pattern
       patternUnits="userSpaceOnUse"
       width="10"
       height="390"
       patternTransform="translate(495,260)"
       id="pattern5535">
      <rect
         y="0"
         x="0"
         height="390"
         width="5"
         id="rect5523"
         style="color:#000000;fill:none;stroke:none;stroke-width:0.99921262;marker:none;visibility:visible;display:inline;overflow:visible;enable-background:accumulate" />
      <rect
         style="color:#000000;fill:#e2e2ff;fill-opacity:1;fill-rule:nonzero;stroke:none;stroke-width:0.99921262;marker:none;visibility:visible;display:inline;overflow:visible;enable-background:accumulate"
         id="rect5525"
         width="5"
         height="390"
         x="5"
         y="0" />
    </pattern>
    <inkscape:perspective
       id="perspective3061"
       inkscape:persp3d-origin="0.5 : 0.33333333 : 1"
       inkscape:vp_z="1 : 0.5 : 1"
       inkscape:vp_y="0 : 1000 : 0"
       inkscape:vp_x="0 : 0.5 : 1"
       sodipodi:type="inkscape:persp3d" />
    <inkscape:perspective
       id="perspective3089"
       inkscape:persp3d-origin="0.5 : 0.33333333 : 1"
       inkscape:vp_z="1 : 0.5 : 1"
       inkscape:vp_y="0 : 1000 : 0"
       inkscape:vp_x="0 : 0.5 : 1"
       sodipodi:type="inkscape:persp3d" />
    <inkscape:perspective
       id="perspective3117"
       inkscape:persp3d-origin="0.5 : 0.33333333 : 1"
       inkscape:vp_z="1 : 0.5 : 1"
       inkscape:vp_y="0 : 1000 : 0"
       inkscape:vp_x="0 : 0.5 : 1"
       sodipodi:type="inkscape:persp3d" />
    <inkscape:perspective
       id="perspective3145"
       inkscape:persp3d-origin="0.5 : 0.33333333 : 1"
       inkscape:vp_z="1 : 0.5 : 1"
       inkscape:vp_y="0 : 1000 : 0"
       inkscape:vp_x="0 : 0.5 : 1"
       sodipodi:type="inkscape:persp3d" />
    <inkscape:perspective
       id="perspective3187"
       inkscape:persp3d-origin="0.5 : 0.33333333 : 1"
       inkscape:vp_z="1 : 0.5 : 1"
       inkscape:vp_y="0 : 1000 : 0"
       inkscape:vp_x="0 : 0.5 : 1"
       sodipodi:type="inkscape:persp3d" />
    <inkscape:perspective
       id="perspective3215"
       inkscape:persp3d-origin="0.5 : 0.33333333 : 1"
       inkscape:vp_z="1 : 0.5 : 1"
       inkscape:vp_y="0 : 1000 : 0"
       inkscape:vp_x="0 : 0.5 : 1"
       sodipodi:type="inkscape:persp3d" />
    <inkscape:perspective
       id="perspective3250"
       inkscape:persp3d-origin="0.5 : 0.33333333 : 1"
       inkscape:vp_z="1 : 0.5 : 1"
       inkscape:vp_y="0 : 1000 : 0"
       inkscape:vp_x="0 : 0.5 : 1"
       sodipodi:type="inkscape:persp3d" />
    <inkscape:perspective
       id="perspective3301"
       inkscape:persp3d-origin="0.5 : 0.33333333 : 1"
       inkscape:vp_z="1 : 0.5 : 1"
       inkscape:vp_y="0 : 1000 : 0"
       inkscape:vp_x="0 : 0.5 : 1"
       sodipodi:type="inkscape:persp3d" />
    <inkscape:perspective
       id="perspective3315"
       inkscape:persp3d-origin="0.5 : 0.33333333 : 1"
       inkscape:vp_z="1 : 0.5 : 1"
       inkscape:vp_y="0 : 1000 : 0"
       inkscape:vp_x="0 : 0.5 : 1"
       sodipodi:type="inkscape:persp3d" />
    <inkscape:perspective
       id="perspective3346"
       inkscape:persp3d-origin="0.5 : 0.33333333 : 1"
       inkscape:vp_z="1 : 0.5 : 1"
       inkscape:vp_y="0 : 1000 : 0"
       inkscape:vp_x="0 : 0.5 : 1"
       sodipodi:type="inkscape:persp3d" />
    <inkscape:perspective
       id="perspective3375"
       inkscape:persp3d-origin="0.5 : 0.33333333 : 1"
       inkscape:vp_z="1 : 0.5 : 1"
       inkscape:vp_y="0 : 1000 : 0"
       inkscape:vp_x="0 : 0.5 : 1"
       sodipodi:type="inkscape:persp3d" />
    <inkscape:perspective
       id="perspective3389"
       inkscape:persp3d-origin="0.5 : 0.33333333 : 1"
       inkscape:vp_z="1 : 0.5 : 1"
       inkscape:vp_y="0 : 1000 : 0"
       inkscape:vp_x="0 : 0.5 : 1"
       sodipodi:type="inkscape:persp3d" />
    <inkscape:perspective
       id="perspective3422"
       inkscape:persp3d-origin="0.5 : 0.33333333 : 1"
       inkscape:vp_z="1 : 0.5 : 1"
       inkscape:vp_y="0 : 1000 : 0"
       inkscape:vp_x="0 : 0.5 : 1"
       sodipodi:type="inkscape:persp3d" />
    <inkscape:perspective
       id="perspective3457"
       inkscape:persp3d-origin="0.5 : 0.33333333 : 1"
       inkscape:vp_z="1 : 0.5 : 1"
       inkscape:vp_y="0 : 1000 : 0"
       inkscape:vp_x="0 : 0.5 : 1"
       sodipodi:type="inkscape:persp3d" />
    <inkscape:perspective
       id="perspective3484"
       inkscape:persp3d-origin="0.5 : 0.33333333 : 1"
       inkscape:vp_z="1 : 0.5 : 1"
       inkscape:vp_y="0 : 1000 : 0"
       inkscape:vp_x="0 : 0.5 : 1"
       sodipodi:type="inkscape:persp3d" />
    <inkscape:perspective
       id="perspective3512"
       inkscape:persp3d-origin="0.5 : 0.33333333 : 1"
       inkscape:vp_z="1 : 0.5 : 1"
       inkscape:vp_y="0 : 1000 : 0"
       inkscape:vp_x="0 : 0.5 : 1"
       sodipodi:type="inkscape:persp3d" />
    <inkscape:perspective
       id="perspective3539"
       inkscape:persp3d-origin="0.5 : 0.33333333 : 1"
       inkscape:vp_z="1 : 0.5 : 1"
       inkscape:vp_y="0 : 1000 : 0"
       inkscape:vp_x="0 : 0.5 : 1"
       sodipodi:type="inkscape:persp3d" />
    <inkscape:perspective
       id="perspective3580"
       inkscape:persp3d-origin="0.5 : 0.33333333 : 1"
       inkscape:vp_z="1 : 0.5 : 1"
       inkscape:vp_y="0 : 1000 : 0"
       inkscape:vp_x="0 : 0.5 : 1"
       sodipodi:type="inkscape:persp3d" />
    <inkscape:perspective
       id="perspective3611"
       inkscape:persp3d-origin="0.5 : 0.33333333 : 1"
       inkscape:vp_z="1 : 0.5 : 1"
       inkscape:vp_y="0 : 1000 : 0"
       inkscape:vp_x="0 : 0.5 : 1"
       sodipodi:type="inkscape:persp3d" />
    <inkscape:perspective
       id="perspective4535"
       inkscape:persp3d-origin="0.5 : 0.33333333 : 1"
       inkscape:vp_z="1 : 0.5 : 1"
       inkscape:vp_y="0 : 1000 : 0"
       inkscape:vp_x="0 : 0.5 : 1"
       sodipodi:type="inkscape:persp3d" />
    <inkscape:perspective
       id="perspective4562"
       inkscape:persp3d-origin="0.5 : 0.33333333 : 1"
       inkscape:vp_z="1 : 0.5 : 1"
       inkscape:vp_y="0 : 1000 : 0"
       inkscape:vp_x="0 : 0.5 : 1"
       sodipodi:type="inkscape:persp3d" />
    <inkscape:perspective
       id="perspective4591"
       inkscape:persp3d-origin="0.5 : 0.33333333 : 1"
       inkscape:vp_z="1 : 0.5 : 1"
       inkscape:vp_y="0 : 1000 : 0"
       inkscape:vp_x="0 : 0.5 : 1"
       sodipodi:type="inkscape:persp3d" />
  </defs>
  <sodipodi:namedview
     id="base"
     pagecolor="#ffffff"
     bordercolor="#666666"
     borderopacity="1.0"
     inkscape:pageopacity="0.0"
     inkscape:pageshadow="2"
     inkscape:zoom="0.92"
     inkscape:cx="563.93926"
     inkscape:cy="591.833"
     inkscape:document-units="mm"
     inkscape:current-layer="layer1"
     showgrid="false"
     units="mm"
     inkscape:window-width="1362"
     inkscape:window-height="729"
     inkscape:window-x="0"
     inkscape:window-y="37"
     inkscape:window-maximized="0"
     showguides="true"
     inkscape:guide-bbox="true"
     inkscape:snap-grids="true"
     fit-margin-top="0"
     fit-margin-left="0"
     fit-margin-right="0"
     fit-margin-bottom="0">
    <inkscape:grid
       type="xygrid"
       id="grid3265"
       empspacing="4"
       visible="true"
       enabled="true"
       snapvisiblegridlinesonly="true"
       units="mm"
       spacingx="8.8582677"
       spacingy="21.259843"
       dotted="false"
       originx="-6.1143622"
       originy="-25.55543" />
    <inkscape:grid
       type="xygrid"
       id="grid4274"
       empspacing="5"
       visible="true"
       enabled="false"
       snapvisiblegridlinesonly="true"
       units="mm"
       spacingx="4.4291339"
       spacingy="3.5433071"
       originx="-6.1143622"
       originy="-25.55543" />
    <inkscape:grid
       type="xygrid"
       id="grid5370"
       empspacing="5"
       visible="true"
       enabled="false"
       snapvisiblegridlinesonly="true"
       originx="-6.1143622"
       originy="-25.55543" />
  </sodipodi:namedview>
  <metadata
     id="metadata3260">
    <rdf:RDF>
      <cc:Work
         rdf:about="">
        <dc:format>image/svg+xml</dc:format>
        <dc:type
           rdf:resource="http://purl.org/dc/dcmitype/StillImage" />
        <dc:title></dc:title>
      </cc:Work>
    </rdf:RDF>
  </metadata>
  <g
     inkscape:groupmode="layer"
     id="layer2"
     inkscape:label="Background"
     style="display:inline"
     transform="translate(-6.1143622,-166.66926)" />
  <g
     inkscape:groupmode="layer"
     id="layer3"
     inkscape:label="Shading"
     style="display:inline"
     transform="translate(-6.1143622,-166.66926)">
    <path
       style="color:#000000;display:inline;overflow:visible;visibility:visible;fill:#e4ffe2;fill-opacity:1;stroke:none;stroke-width:1px;marker:none;enable-background:accumulate"
       d="m 114.94115,623.01474 v 252.4087 l 4.4375,2.99451 -8.875,6.01552 8.875,6.01553 -8.875,5.98902 8.875,6.01552 -8.875,6.01553 4.4375,2.99451 v 36.06663 H 327.5349 v -36.06663 l -4.4375,-2.99451 8.875,-6.01553 -8.875,-6.01552 8.875,-5.98902 -8.875,-6.01553 8.875,-6.01552 -4.4375,-2.99451 v -252.4087 z"
       id="rect2981"
       sodipodi:nodetypes="ccccccccccccccccccccc"
       inkscape:connector-curvature="0" />
    <path
       style="color:#000000;display:inline;overflow:visible;visibility:visible;fill:#e2e2ff;fill-opacity:1;stroke:none;stroke-width:1px;marker:none;enable-background:accumulate"
       d="m 116.59725,200.41337 v 69.86341 l 4.4375,5.8562 -8.875,11.66102 8.875,11.60966 -8.875,11.66102 8.875,11.66103 -8.875,11.66102 4.4375,5.80483 V 619.7993 H 329.191 V 340.19156 l -4.4375,-5.80483 8.875,-11.66102 -8.875,-11.66103 8.875,-11.66102 -8.875,-11.60966 8.875,-11.66102 -4.4375,-5.8562 v -69.86341 z"
       id="rect3761"
       inkscape:connector-curvature="0" />
  </g>
  <g
     inkscape:groupmode="layer"
     id="layer5"
     inkscape:label="Empty"
     style="display:none"
     transform="translate(-6.1143622,-166.66926)">
    <rect
       style="color:#000000;display:inline;overflow:visible;visibility:visible;fill:#eeeeee;fill-opacity:1;fill-rule:evenodd;stroke:none;stroke-width:0.99921262;marker:none;enable-background:accumulate"
       id="rect4294"
       width="212.59842"
       height="106.2992"
       x="150.59056"
       y="777.40161" />
    <rect
       y="904.96063"
       x="150.59056"
       height="42.519714"
       width="212.59842"
       id="rect4296"
       style="color:#000000;display:inline;overflow:visible;visibility:visible;fill:#eeeeee;fill-opacity:1;fill-rule:evenodd;stroke:none;stroke-width:0.99921262;marker:none;enable-background:accumulate" />
    <rect
       y="352.20471"
       x="150.59056"
       height="42.519699"
       width="212.59842"
       id="rect4298"
       style="color:#000000;display:inline;overflow:visible;visibility:visible;fill:#eeeeee;fill-opacity:1;fill-rule:evenodd;stroke:none;stroke-width:0.99921262;marker:none;enable-background:accumulate" />
    <rect
       style="color:#000000;display:inline;overflow:visible;visibility:visible;fill:#eeeeee;fill-opacity:1;fill-rule:evenodd;stroke:none;stroke-width:0.99921262;marker:none;enable-background:accumulate"
       id="rect4430"
       width="159.44882"
       height="42.519684"
       x="496.06299"
       y="713.62207" />
  </g>
  <g
     inkscape:groupmode="layer"
     id="layer4"
     inkscape:label="Boundary"
     style="display:inline"
     transform="translate(-6.1143622,-166.66926)">
    <path
       id="path4282"
       style="fill:none;stroke:#000000;stroke-width:1px;stroke-linecap:butt;stroke-linejoin:miter;stroke-opacity:1"
       d="M 332.19627,203.09901 H 119.59784 v 37.33558 l 4.42914,3.11127 -8.85827,6.22262 8.85827,6.22259 -8.85827,6.22258 8.85827,6.22261 -8.85827,6.22258 4.42913,3.1113 v 448.02678 l 4.42914,3.11131 -8.85827,6.22259 8.85827,6.2226 -8.85827,6.22261 8.85827,6.22257 -8.85827,6.2226 4.42913,3.1113 V 949.81032 H 332.19627 V 763.1325 l -4.42913,-3.1113 8.85827,-6.2226 -8.85827,-6.22257 8.85827,-6.22261 -8.85827,-6.2226 8.85827,-6.22259 -4.42914,-3.11131 V 277.77014 l -4.42913,-3.1113 8.85827,-6.22258 -8.85827,-6.22261 8.85827,-6.22258 -8.85827,-6.22259 8.85827,-6.22262 -4.42914,-3.11127 z"
       sodipodi:nodetypes="ccccccccccccccccccccccccccccccccccccc"
       inkscape:connector-curvature="0" />
    <text
       xml:space="preserve"
       style="font-style:normal;font-weight:normal;line-height:0%;font-family:'Bitstream Vera Sans';fill:#000000;fill-opacity:1;stroke:none"
       x="481.56015"
       y="964.24634"
       id="text3321"><tspan
         sodipodi:role="line"
         id="tspan3323"
         x="481.56015"
         y="964.24634"
         style="font-size:14px;line-height:1.25">0</tspan></text>
    <rect
       style="fill:none;stroke-width:1.5;stroke-miterlimit:4;stroke-dasharray:12, 12;stroke-dashoffset:0"
       id="rect2960"
       width="210.48911"
       height="312.22552"
       x="527.97687"
       y="621.64404" />
    <path
       transform="translate(0,-62.362323)"
       inkscape:connector-curvature="0"
       style="display:inline;fill:none;stroke:#000000;stroke-width:0.98419327;stroke-linecap:butt;stroke-linejoin:miter;stroke-miterlimit:4;stroke-dasharray:1.96838648, 3.93677294;stroke-dashoffset:0;stroke-opacity:1"
       d="M 332.42645,264.86239 C 530.0995,664.36795 531.91302,666.44874 531.91302,666.44874 v 0 h -1.81352"
       id="path3171" />
    <path
       transform="translate(0,-62.362323)"
       id="path3169"
       d="m 333.52168,365.94797 c 197.65671,384.36088 199.47008,386.36279 199.47008,386.36279 v 0 h -1.81337"
       style="display:inline;fill:none;stroke:#000000;stroke-width:0.99999994;stroke-linecap:butt;stroke-linejoin:miter;stroke-miterlimit:4;stroke-dasharray:1.99999999, 3.99999998;stroke-dashoffset:0;stroke-opacity:1"
       inkscape:connector-curvature="0" />
  </g>
  <g
     inkscape:label="Layer 1"
     inkscape:groupmode="layer"
     id="layer1"
     transform="translate(-6.1143622,-229.03159)"
     style="display:inline">
    <text
       id="text3314"
       y="949.26971"
       x="226.58351"
       style="font-style:normal;font-weight:normal;line-height:0%;font-family:'Bitstream Vera Sans';text-align:center;text-anchor:middle;fill:#000000;fill-opacity:1;stroke:none"
       xml:space="preserve"><tspan
         style="font-size:14px;line-height:1.25;text-align:center;text-anchor:middle"
         y="949.26971"
         x="226.58351"
         id="tspan3316"
         sodipodi:role="line">User data</tspan></text>
    <path
       style="fill:none;stroke:#000000;stroke-width:0.99999994px;stroke-linecap:butt;stroke-linejoin:miter;stroke-opacity:1"
       d="M 120.76281,967.32292 H 333.36123"
       id="path3330"
       inkscape:connector-curvature="0" />
    <text
       id="text3332"
       y="992.22986"
       x="226.58351"
       style="font-style:normal;font-weight:normal;line-height:0%;font-family:'Bitstream Vera Sans';text-align:center;text-anchor:middle;fill:#000000;fill-opacity:1;stroke:none"
       xml:space="preserve"><tspan
         style="font-size:14px;line-height:1.25;text-align:center;text-anchor:middle"
         y="992.22986"
         x="226.58351"
         id="tspan3334"
         sodipodi:role="line">User text</tspan></text>
    <path
       style="fill:none;stroke:#000000;stroke-width:1px;stroke-linecap:butt;stroke-linejoin:miter;stroke-opacity:1"
       d="M 120.76282,917.26319 H 333.36124"
       id="path3338"
       inkscape:connector-curvature="0" />
    <path
       style="fill:none;stroke:#000000;stroke-width:0.99999994px;stroke-linecap:butt;stroke-linejoin:miter;stroke-opacity:1"
       d="M 533.49731,754.05065 H 733.11333"
       id="path3358"
       inkscape:connector-curvature="0" />
    <text
       xml:space="preserve"
       style="font-style:normal;font-weight:normal;line-height:0%;font-family:'Bitstream Vera Sans';text-align:center;text-anchor:middle;fill:#000000;fill-opacity:1;stroke:none"
       x="227.66066"
       y="907.47369"
       id="text3360"><tspan
         sodipodi:role="line"
         id="tspan3362"
         x="227.66066"
         y="907.47369"
         style="font-size:14px;line-height:1.25;text-align:center;text-anchor:middle">User stack</tspan></text>
    <text
       id="text4146"
       y="822.93292"
       x="225.50636"
       style="font-style:normal;font-weight:normal;line-height:0%;font-family:'Bitstream Vera Sans';text-align:center;text-anchor:middle;fill:#000000;fill-opacity:1;stroke:none"
       xml:space="preserve"><tspan
         style="font-size:14px;line-height:1.25;text-align:center;text-anchor:middle"
         y="822.93292"
         x="225.50636"
         id="tspan4148"
         sodipodi:role="line">Program data &amp; heap</tspan></text>
    <path
       sodipodi:nodetypes="cc"
       id="path4160"
       d="m 502.63137,966.67365 h 17.71654"
       style="fill:none;stroke:#000000;stroke-width:0.99921262;stroke-linecap:butt;stroke-linejoin:miter;stroke-miterlimit:4;stroke-dasharray:none;stroke-opacity:1;marker-end:url(#Arrow1Mend)"
       inkscape:connector-curvature="0" />
    <path
       id="path4162"
       d="M 118.60851,683.17753 H 331.20694"
       style="fill:none;stroke:#000000;stroke-width:1px;stroke-linecap:butt;stroke-linejoin:miter;stroke-opacity:1"
       inkscape:connector-curvature="0" />
    <path
       style="fill:none;stroke:#000000;stroke-width:0.99921262;stroke-linecap:butt;stroke-linejoin:miter;stroke-miterlimit:4;stroke-dasharray:none;stroke-opacity:1;marker-end:url(#Arrow1Mend)"
       d="m 103.04627,627.16548 h 17.71654"
       id="path4172"
       sodipodi:nodetypes="cc"
       inkscape:connector-curvature="0" />
    <path
       style="fill:none;stroke:#000000;stroke-width:1px;stroke-linecap:butt;stroke-linejoin:miter;stroke-opacity:1"
       d="M 121.83997,627.22134 H 334.4384"
       id="path4180"
       inkscape:connector-curvature="0" />
    <text
       id="text4192"
       y="631.36346"
       x="4.6309638"
       style="font-style:normal;font-weight:normal;line-height:0%;font-family:'Bitstream Vera Sans';text-align:start;text-anchor:start;fill:#000000;fill-opacity:1;stroke:none"
       xml:space="preserve"><tspan
         style="font-size:14px;line-height:1.25;text-align:start;text-anchor:start"
         y="631.36346"
         x="4.6309638"
         id="tspan4194"
         sodipodi:role="line">+ 0x100000</tspan></text>
    <path
       id="path4196"
       d="M 118.60851,537.96114 H 331.20694"
       style="fill:none;stroke:#000000;stroke-width:1px;stroke-linecap:butt;stroke-linejoin:miter;stroke-opacity:1"
       inkscape:connector-curvature="0" />
    <path
       style="fill:none;stroke:#000000;stroke-width:0.99921262;stroke-linecap:butt;stroke-linejoin:miter;stroke-miterlimit:4;stroke-dasharray:none;stroke-opacity:1;marker-end:url(#Arrow1Mend)"
       d="M 99.237949,536.29974 H 116.95449"
       id="path4206"
       sodipodi:nodetypes="cc"
       inkscape:connector-curvature="0" />
    <path
       style="fill:none;stroke:#000000;stroke-width:1px;stroke-linecap:butt;stroke-linejoin:miter;stroke-opacity:1"
       d="M 120.00116,363.39819 H 332.59959"
       id="path4212"
       inkscape:connector-curvature="0" />
    <text
       id="text4214"
       y="606.41736"
       x="219.04346"
       style="font-style:normal;font-weight:normal;line-height:0%;font-family:'Bitstream Vera Sans';text-align:center;text-anchor:middle;fill:#000000;fill-opacity:1;stroke:none"
       xml:space="preserve"><tspan
         style="font-size:14px;line-height:1.25;text-align:center;text-anchor:middle"
         y="606.41736"
         x="219.04346"
         id="tspan4216"
         sodipodi:role="line">Kernel text</tspan></text>
    <text
       xml:space="preserve"
       style="font-style:normal;font-weight:normal;line-height:0%;font-family:'Bitstream Vera Sans';text-align:start;text-anchor:start;fill:#000000;fill-opacity:1;stroke:none"
       x="66.256699"
       y="540.43719"
       id="text4218"><tspan
         sodipodi:role="line"
         id="tspan4220"
         x="66.256699"
         y="540.43719"
         style="font-size:14px;line-height:1.25;text-align:start;text-anchor:start">end</tspan><tspan
         sodipodi:role="line"
         x="66.256699"
         y="557.93719"
         style="font-size:14px;line-height:1.25;text-align:start;text-anchor:start"
         id="tspan4406"> </tspan></text>
    <path
       sodipodi:nodetypes="cc"
       id="path4222"
       d="M 97.396559,363.89257 H 115.1131"
       style="fill:none;stroke:#000000;stroke-width:0.99921262;stroke-linecap:butt;stroke-linejoin:miter;stroke-miterlimit:4;stroke-dasharray:none;stroke-opacity:1;marker-end:url(#Arrow1Mend)"
       inkscape:connector-curvature="0" />
    <text
       id="text4234"
       y="685.26569"
       x="23.718901"
       style="font-style:normal;font-weight:normal;line-height:0%;font-family:'Bitstream Vera Sans';text-align:start;text-anchor:start;fill:#000000;fill-opacity:1;stroke:none"
       xml:space="preserve"><tspan
         style="font-size:14px;line-height:1.25;text-align:start;text-anchor:start"
         y="685.26569"
         x="23.718901"
         id="tspan4236"
         sodipodi:role="line">KERNBASE</tspan></text>
    <path
       style="fill:none;stroke:#000000;stroke-width:0.99921262;stroke-linecap:butt;stroke-linejoin:miter;stroke-miterlimit:4;stroke-dasharray:none;stroke-opacity:1;marker-end:url(#Arrow1Mend)"
       d="m 97.7854,268.52974 h 17.71654"
       id="path4238"
       sodipodi:nodetypes="cc"
       inkscape:connector-curvature="0" />
    <text
       xml:space="preserve"
       style="font-style:normal;font-weight:normal;line-height:0%;font-family:'Bitstream Vera Sans';text-align:center;text-anchor:middle;fill:#000000;fill-opacity:1;stroke:none"
       x="218.96687"
       y="570.69531"
       id="text4246"><tspan
         sodipodi:role="line"
         id="tspan4248"
         x="218.96687"
         y="570.69531"
         style="font-size:14px;line-height:1.25;text-align:center;text-anchor:middle">Kernel data</tspan></text>
    <text
       xml:space="preserve"
       style="font-style:normal;font-weight:normal;line-height:0%;font-family:'Bitstream Vera Sans';text-align:start;text-anchor:start;fill:#000000;fill-opacity:1;stroke:none"
       x="39.869415"
       y="271.7225"
       id="text4256"><tspan
         sodipodi:role="line"
         id="tspan4258"
         x="39.869415"
         y="271.7225"
         style="font-size:14px;line-height:1.25;text-align:start;text-anchor:start">4 Gbyte</tspan></text>
    <text
       xml:space="preserve"
       style="font-style:normal;font-weight:normal;line-height:0%;font-family:'Bitstream Vera Sans';text-align:start;text-anchor:start;fill:#000000;fill-opacity:1;stroke:none"
       x="80.866951"
       y="1011.4441"
       id="text4268"><tspan
         sodipodi:role="line"
         id="tspan4270"
         x="80.866951"
         y="1011.4441"
         style="font-size:14px;line-height:1.25;text-align:start;text-anchor:start">0</tspan></text>
    <path
       sodipodi:nodetypes="cc"
       id="path4272"
       d="m 97.04627,1009.8426 h 17.71654"
       style="fill:none;stroke:#000000;stroke-width:0.99921262;stroke-linecap:butt;stroke-linejoin:miter;stroke-miterlimit:4;stroke-dasharray:none;stroke-opacity:1;marker-end:url(#Arrow1Mend)"
       inkscape:connector-curvature="0" />
    <text
       xml:space="preserve"
       style="font-style:normal;font-weight:normal;line-height:0%;font-family:'Bitstream Vera Sans';text-align:start;text-anchor:start;fill:#000000;fill-opacity:1;stroke:none"
       x="335.38568"
       y="522.0744"
       id="text4921"><tspan
         sodipodi:role="line"
         id="tspan4923"
         x="335.38568"
         y="522.0744"
         style="font-size:14px;line-height:1.25;text-align:start;text-anchor:start">RW--</tspan></text>
    <text
       id="text4925"
       y="334.68204"
       x="336.39462"
       style="font-style:normal;font-weight:normal;line-height:0%;font-family:'Bitstream Vera Sans';text-align:start;text-anchor:start;fill:#000000;fill-opacity:1;stroke:none"
       xml:space="preserve"><tspan
         style="font-size:14px;line-height:1.25;text-align:start;text-anchor:start"
         y="334.68204"
         x="336.39462"
         id="tspan4927"
         sodipodi:role="line">RW-</tspan></text>
    <text
       id="text5610"
       y="908.4906"
       x="343.43298"
       style="font-style:normal;font-weight:normal;line-height:0%;font-family:'Bitstream Vera Sans';text-align:start;text-anchor:start;fill:#000000;fill-opacity:1;stroke:none"
       xml:space="preserve"><tspan
         style="font-size:14px;line-height:1.25;text-align:start;text-anchor:start"
         y="908.4906"
         x="343.43298"
         id="tspan5612"
         sodipodi:role="line">RWU</tspan></text>
    <text
       xml:space="preserve"
       style="font-style:normal;font-weight:normal;line-height:0%;font-family:'Bitstream Vera Sans';fill:#000000;fill-opacity:1;stroke:none"
       x="175.91064"
       y="259.56308"
       id="text3221"
       transform="translate(0,62.362323)"><tspan
         sodipodi:role="line"
         id="tspan3223"
         x="175.91064"
         y="259.56308"
         style="font-size:40px;line-height:1.25"> </tspan></text>
    <text
       xml:space="preserve"
       style="font-style:normal;font-weight:normal;line-height:0%;font-family:'Bitstream Vera Sans';fill:#000000;fill-opacity:1;stroke:none"
       x="172.41574"
       y="313.7706"
       id="text3225"><tspan
         sodipodi:role="line"
         id="tspan3227"
         x="172.41574"
         y="313.7706"
         style="font-size:14px;line-height:1.25">Device memory</tspan></text>
    <text
       xml:space="preserve"
       style="font-style:normal;font-weight:normal;line-height:0%;font-family:'Bitstream Vera Sans';fill:#000000;fill-opacity:1;stroke:none"
       x="5.8248515"
       y="368.52426"
       id="text3256"><tspan
         sodipodi:role="line"
         id="tspan3258"
         x="5.8248515"
         y="368.52426"
         style="font-size:14px;line-height:1.25">0xFE000000</tspan></text>
    <text
       xml:space="preserve"
       style="font-style:normal;font-weight:normal;line-height:0%;font-family:'Bitstream Vera Sans';fill:#000000;fill-opacity:1;stroke:none"
       x="174.04878"
       y="503.72842"
       id="text3260"><tspan
         sodipodi:role="line"
         id="tspan3262"
         x="174.04878"
         y="503.72842"
         style="font-size:14px;line-height:1.25">Free memory</tspan></text>
    <text
       xml:space="preserve"
       style="font-style:normal;font-weight:normal;line-height:0%;font-family:'Bitstream Vera Sans';fill:#000000;fill-opacity:1;stroke:none"
       x="336.67667"
       y="568.89929"
       id="text3264"><tspan
         sodipodi:role="line"
         id="tspan3266"
         x="336.67667"
         y="568.89929"
         style="font-size:14px;line-height:1.25">RW-</tspan></text>
    <text
       xml:space="preserve"
       style="font-style:normal;font-weight:normal;line-height:0%;font-family:'Bitstream Vera Sans';fill:#000000;fill-opacity:1;stroke:none"
       x="339.00659"
       y="609.67328"
       id="text3268"><tspan
         sodipodi:role="line"
         id="tspan3270"
         x="339.00659"
         y="609.67328"
         style="font-size:14px;line-height:1.25">R--</tspan></text>
    <text
       xml:space="preserve"
       style="font-style:normal;font-weight:normal;line-height:0%;font-family:'Bitstream Vera Sans';fill:#000000;fill-opacity:1;stroke:none"
       x="372.79077"
       y="931.75146"
       id="text3272"
       transform="translate(0,62.362323)"><tspan
         sodipodi:role="line"
         id="tspan3274"
         x="372.79077"
         y="931.75146"
         style="font-size:14px;line-height:1.25"> </tspan></text>
    <text
       xml:space="preserve"
       style="font-style:normal;font-weight:normal;line-height:0%;font-family:'Bitstream Vera Sans';fill:#000000;fill-opacity:1;stroke:none"
       x="179.40556"
       y="242.70737"
       id="text3276"><tspan
         sodipodi:role="line"
         id="tspan3278"
         x="179.40556"
         y="242.70737"
         style="font-size:18px;line-height:1.25">Virtual</tspan></text>
    <text
       xml:space="preserve"
       style="font-style:normal;font-weight:normal;line-height:0%;font-family:'Bitstream Vera Sans';fill:#000000;fill-opacity:1;stroke:none"
       x="420.47656"
       y="945.49701"
       id="text3395"><tspan
         sodipodi:role="line"
         id="tspan3397"
         x="420.47656"
         y="945.49701"
         style="font-size:14px;line-height:1.25">0x100000</tspan></text>
    <text
       xml:space="preserve"
       style="font-style:normal;font-weight:normal;line-height:0%;font-family:'Bitstream Vera Sans';fill:#000000;fill-opacity:1;stroke:none"
       x="438.57001"
       y="861.46313"
       id="text3428"><tspan
         sodipodi:role="line"
         id="tspan3430"
         x="438.57001"
         y="861.46313"
         style="font-size:14px;line-height:1.25">PHYSTOP</tspan></text>
    <text
       xml:space="preserve"
       style="font-style:normal;font-weight:normal;line-height:0%;font-family:'Bitstream Vera Sans';fill:#000000;fill-opacity:1;stroke:none"
       x="555.54572"
       y="790.31134"
       id="text3545"><tspan
         sodipodi:role="line"
         x="555.54572"
         y="790.31134"
         id="tspan3416"
         style="font-size:14px;line-height:1.25">Unused if computer has </tspan><tspan
         sodipodi:role="line"
         x="555.54572"
         y="807.81134"
         id="tspan3523"
         style="font-size:14px;line-height:1.25">more than 2 Gbyte of </tspan><tspan
         sodipodi:role="line"
         x="555.54572"
         y="825.31134"
         id="tspan3529"
         style="font-size:14px;line-height:1.25">memory</tspan></text>
    <text
       xml:space="preserve"
       style="font-style:normal;font-weight:normal;line-height:0%;font-family:'Bitstream Vera Sans';fill:#000000;fill-opacity:1;stroke:none"
       x="566.56604"
       y="895.63727"
       id="text3549"><tspan
         sodipodi:role="line"
         id="tspan3551"
         x="566.56604"
         y="895.63727"
         style="font-size:14px;line-height:1.25">Extended memory</tspan></text>
    <text
       xml:space="preserve"
       style="font-style:normal;font-weight:normal;line-height:0%;font-family:'Bitstream Vera Sans';fill:#000000;fill-opacity:1;stroke:none"
       x="428.33875"
       y="968.48444"
       id="text3586"><tspan
         sodipodi:role="line"
         id="tspan3588"
         x="428.33875"
         y="968.48444"
         style="font-size:14px;line-height:1.25">640Kbyte</tspan></text>
    <text
       xml:space="preserve"
       style="font-style:normal;font-weight:normal;line-height:0%;font-family:'Bitstream Vera Sans';fill:#000000;fill-opacity:1;stroke:none"
       x="588.31042"
       y="959.33978"
       id="text3617"><tspan
         sodipodi:role="line"
         id="tspan3619"
         x="588.31042"
         y="959.33978"
         style="font-size:14px;line-height:1.25">I/O space</tspan></text>
    <text
       xml:space="preserve"
       style="font-style:normal;font-weight:normal;line-height:0%;font-family:'Bitstream Vera Sans';fill:#000000;fill-opacity:1;stroke:none"
       x="582.62128"
       y="996.28522"
       id="text3621"><tspan
         sodipodi:role="line"
         id="tspan3623"
         x="582.62128"
         y="996.28522"
         style="font-size:14px;line-height:1.25">Base memory</tspan></text>
    <rect
       style="fill:none;stroke-width:1.5;stroke-miterlimit:4;stroke-dasharray:12, 12;stroke-dashoffset:0"
       id="rect2962"
       width="219.25951"
       height="326.25809"
       x="519.20648"
       y="616.38184"
       transform="translate(0,62.362323)" />
    <rect
       style="opacity:0;fill:#ffffff;stroke:#000000;stroke-opacity:0.89655175"
       id="rect3744"
       width="215.75134"
       height="324.504"
       x="529.7309"
       y="614.62775"
       transform="translate(0,62.362323)" />
    <rect
       style="opacity:0;fill:#ffffff;stroke:#000000;stroke-width:0.99921262;stroke-miterlimit:4;stroke-dasharray:none;stroke-opacity:0.89655175"
       id="rect4474"
       width="224.5217"
       height="342.0448"
       x="513.94421"
       y="600.59515"
       transform="translate(0,62.362323)" />
    <rect
       style="opacity:0;fill:#ffffff;stroke:#000000;stroke-width:7.37716532;stroke-miterlimit:4;stroke-dasharray:none;stroke-opacity:0.89655175"
       id="rect4484"
       width="217.50545"
       height="335.02847"
       x="522.7146"
       y="607.61145"
       transform="translate(0,62.362323)" />
    <rect
       style="opacity:0;fill:#ffffff;stroke:#000000;stroke-width:7.37716532;stroke-miterlimit:4;stroke-dasharray:none;stroke-opacity:0.89655175"
       id="rect4494"
       width="210.48911"
       height="345.55295"
       x="501.66571"
       y="583.05438"
       transform="translate(0,62.362323)" />
    <rect
       style="fill:none;stroke:#000000;stroke-width:1.12750006;stroke-miterlimit:4;stroke-dasharray:none;stroke-opacity:0.89655175"
       id="rect4496"
       width="199.96465"
       height="357.83148"
       x="532.57196"
       y="667.13269"
       ry="0" />
    <text
       xml:space="preserve"
       style="font-style:normal;font-weight:normal;line-height:0%;font-family:'Bitstream Vera Sans';fill:#000000;fill-opacity:1;stroke:none"
       x="582.35321"
       y="554.9892"
       id="text4498"
       transform="translate(0,62.362323)"><tspan
         sodipodi:role="line"
         id="tspan4500"
         x="582.35321"
         y="554.9892"
         style="font-size:18px;line-height:1.25"> </tspan></text>
    <text
       xml:space="preserve"
       style="font-style:normal;font-weight:normal;line-height:0%;font-family:'Bitstream Vera Sans';fill:#000000;fill-opacity:1;stroke:none"
       x="578.35046"
       y="647.93579"
       id="text4502"><tspan
         sodipodi:role="line"
         id="tspan4504"
         x="578.35046"
         y="647.93579"
         style="font-size:18px;line-height:1.25">Physical</tspan></text>
    <path
       style="fill:none;stroke:#000000;stroke-width:1;stroke-linecap:butt;stroke-linejoin:miter;stroke-miterlimit:4;stroke-dasharray:2, 4;stroke-dashoffset:0;stroke-opacity:1"
       d="M 335.69561,682.25231 C 526.88988,1019.0349 528.64396,1020.789 528.64396,1020.789 v 0 h -1.75408"
       id="path4506"
       inkscape:connector-curvature="0" />
    <path
       style="fill:none;stroke:#000000;stroke-width:1;stroke-linecap:butt;stroke-linejoin:miter;stroke-miterlimit:4;stroke-dasharray:3.99999995, 3.99999995;stroke-dashoffset:9.39999962;stroke-opacity:1"
       d="m 330.01354,471.28632 c 202.5584,381.04887 202.5584,381.04887 202.5584,381.04887"
       id="path4510"
       inkscape:connector-curvature="0" />
    <path
       style="fill:none;stroke:#000000;stroke-width:0.99921262;stroke-linecap:butt;stroke-linejoin:miter;stroke-miterlimit:4;stroke-dasharray:none;stroke-opacity:1;marker-end:url(#Arrow1Mend)"
       d="m 510.24007,855.80409 h 17.71654"
       id="path4597"
       sodipodi:nodetypes="cc"
       inkscape:connector-curvature="0" />
    <path
       style="fill:none;stroke:#000000;stroke-width:0.99921262;stroke-linecap:butt;stroke-linejoin:miter;stroke-miterlimit:4;stroke-dasharray:none;stroke-opacity:1;marker-end:url(#Arrow1Mend)"
       d="m 505.89224,1022.1084 h 17.71654"
       id="path4599"
       sodipodi:nodetypes="cc"
       inkscape:connector-curvature="0" />
    <path
       style="fill:none;stroke:#000000;stroke-width:0.99921262;stroke-linecap:butt;stroke-linejoin:miter;stroke-miterlimit:4;stroke-dasharray:none;stroke-opacity:1;marker-end:url(#Arrow1Mend)"
       d="m 501.54441,942.76061 h 17.71654"
       id="path4615"
       sodipodi:nodetypes="cc"
       inkscape:connector-curvature="0" />
    <path
       style="fill:none;stroke:#000000;stroke-width:1px;stroke-linecap:butt;stroke-linejoin:miter;stroke-opacity:1"
       d="M 530.23644,968.72434 H 729.85246"
       id="path4617"
       inkscape:connector-curvature="0" />
    <path
       sodipodi:nodetypes="cc"
       id="path4619"
       d="m 99.7854,682.60026 h 17.71654"
       style="fill:none;stroke:#000000;stroke-width:0.99921262;stroke-linecap:butt;stroke-linejoin:miter;stroke-miterlimit:4;stroke-dasharray:none;stroke-opacity:1;marker-end:url(#Arrow1Mend)"
       inkscape:connector-curvature="0" />
    <path
       style="fill:none;stroke:#000000;stroke-width:1px;stroke-linecap:butt;stroke-linejoin:miter;stroke-opacity:1"
       d="M 119.69547,885.35144 H 332.2939"
       id="path4623"
       inkscape:connector-curvature="0" />
    <text
       id="text2980"
       y="671.72253"
       x="451.60852"
       style="font-style:normal;font-weight:normal;line-height:0%;font-family:'Bitstream Vera Sans';text-align:start;text-anchor:start;fill:#000000;fill-opacity:1;stroke:none"
       xml:space="preserve"
       inkscape:transform-center-x="-6.5217391"
       inkscape:transform-center-y="-185.86957"><tspan
         style="font-size:14px;line-height:1.25;text-align:start;text-anchor:start"
         y="671.72253"
         x="451.60852"
         id="tspan2982"
         sodipodi:role="line">4 Gbyte</tspan></text>
    <path
       id="path2979"
       d="M 118.5889,586.88814 H 331.18732"
       style="fill:none;stroke:#000000;stroke-width:0.99999994px;stroke-linecap:butt;stroke-linejoin:miter;stroke-opacity:1"
       inkscape:connector-curvature="0" />
    <text
       xml:space="preserve"
       style="font-style:normal;font-weight:normal;line-height:0%;font-family:'Bitstream Vera Sans';text-align:start;text-anchor:start;fill:#000000;fill-opacity:1;stroke:none"
       x="342.91635"
       y="949.89941"
       id="text2981"><tspan
         sodipodi:role="line"
         id="tspan2983"
         x="342.91635"
         y="949.89941"
         style="font-size:14px;line-height:1.25;text-align:start;text-anchor:start">RWU</tspan></text>
    <text
       id="text2985"
       y="995.55157"
       x="344.0033"
       style="font-style:normal;font-weight:normal;line-height:0%;font-family:'Bitstream Vera Sans';text-align:start;text-anchor:start;fill:#000000;fill-opacity:1;stroke:none"
       xml:space="preserve"><tspan
         style="font-size:14px;line-height:1.25;text-align:start;text-anchor:start"
         y="995.55157"
         x="344.0033"
         id="tspan2987"
         sodipodi:role="line">RWU</tspan></text>
    <text
       xml:space="preserve"
       style="font-style:normal;font-weight:normal;line-height:0%;font-family:'Bitstream Vera Sans';text-align:start;text-anchor:start;fill:#000000;fill-opacity:1;stroke:none"
       x="43.432987"
       y="907.40363"
       id="text2989"><tspan
         sodipodi:role="line"
         id="tspan2991"
         x="43.432987"
         y="907.40363"
         style="font-size:14px;line-height:1.25;text-align:start;text-anchor:start">PAGESIZE</tspan></text>
    <text
       id="text2993"
       y="659.67328"
       x="339.00659"
       style="font-style:normal;font-weight:normal;line-height:0%;font-family:'Bitstream Vera Sans';fill:#000000;fill-opacity:1;stroke:none"
       xml:space="preserve"
       inkscape:transform-center-y="-53.26087"><tspan
         y="659.67328"
         x="339.00659"
         id="tspan2995"
         sodipodi:role="line"
         style="font-size:14px;line-height:1.25">RW-</tspan></text>
    <path
       id="path3039"
       d="M 532.41035,941.55043 H 732.02637"
       style="fill:none;stroke:#000000;stroke-width:1px;stroke-linecap:butt;stroke-linejoin:miter;stroke-opacity:1"
       inkscape:connector-curvature="0" />
    <path
       id="path3147"
       d="M 532.41035,854.59391 H 732.02637"
       style="fill:none;stroke:#000000;stroke-width:1px;stroke-linecap:butt;stroke-linejoin:miter;stroke-opacity:1"
       inkscape:connector-curvature="0" />
    <text
       xml:space="preserve"
       style="font-style:normal;font-variant:normal;font-weight:bold;font-stretch:normal;line-height:0%;font-family:'Bitstream Vera Sans';-inkscape-font-specification:'Sans Bold';text-align:start;letter-spacing:0px;word-spacing:0px;writing-mode:lr-tb;text-anchor:start;fill:#000000;fill-opacity:1;stroke:none"
       x="471.73914"
       y="788.91302"
       id="text3149"
       transform="translate(0,62.362323)"><tspan
         sodipodi:role="line"
         id="tspan3151"
         x="471.73914"
         y="788.91302"
         style="font-size:22px;line-height:1"> </tspan></text>
    <text
       id="text3197"
       y="712.05048"
       x="572.93701"
       style="font-style:normal;font-weight:normal;line-height:0%;font-family:'Bitstream Vera Sans';fill:#000000;fill-opacity:1;stroke:none"
       xml:space="preserve"
       inkscape:transform-center-x="-8.6956522"
       inkscape:transform-center-y="96.73913"><tspan
         y="712.05048"
         x="572.93701"
         id="tspan3199"
         sodipodi:role="line"
         style="font-size:14px;line-height:1.25">Memory-mapped</tspan><tspan
         y="729.55048"
         x="572.93701"
         sodipodi:role="line"
         id="tspan3201"
         style="font-size:14px;line-height:1.25">32-bit I/O devices</tspan></text>
    <path
       id="path3203"
       d="M 116.74029,469.91993 H 329.33872"
       style="fill:none;stroke:#000000;stroke-width:1px;stroke-linecap:butt;stroke-linejoin:miter;stroke-opacity:1"
       inkscape:connector-curvature="0" />
    <text
       id="text3418"
       y="407.70264"
       x="151.19786"
       style="font-style:normal;font-weight:normal;line-height:0%;font-family:'Bitstream Vera Sans';fill:#000000;fill-opacity:1;stroke:none"
       xml:space="preserve"><tspan
         id="tspan3420"
         y="407.70264"
         x="151.19786"
         sodipodi:role="line"
         style="font-size:14px;line-height:1.25">Unused if PHYSTOP is</tspan><tspan
         id="tspan3422"
         y="425.20264"
         x="151.19786"
         sodipodi:role="line"
         style="font-size:14px;line-height:1.25">less than 2 Gbyte</tspan></text>
    <text
       xml:space="preserve"
       style="font-style:normal;font-weight:normal;line-height:0%;font-family:sans-serif;text-align:start;letter-spacing:0px;word-spacing:0px;writing-mode:lr-tb;text-anchor:start;fill:#000000;fill-opacity:1;stroke:none;stroke-width:1px;stroke-linecap:butt;stroke-linejoin:miter;stroke-opacity:1"
       x="517.3913"
       y="669.7536"
       id="text3513"><tspan
         sodipodi:role="line"
         id="tspan3515"
         x="517.3913"
         y="669.7536"
         style="font-size:12.5px;line-height:1.25"> </tspan></text>
    <path
       inkscape:connector-curvature="0"
       sodipodi:nodetypes="cc"
       id="path3574"
       d="m 510.06615,667.76061 h 17.71654"
       style="fill:none;stroke:#000000;stroke-width:0.99921262;stroke-linecap:butt;stroke-linejoin:miter;stroke-miterlimit:4;stroke-dasharray:none;stroke-opacity:1;marker-end:url(#Arrow1Mend)" />
    <text
       id="text3515"
       y="755.48077"
       x="416.69443"
       style="font-style:normal;font-weight:normal;line-height:0%;font-family:'Bitstream Vera Sans';fill:#000000;fill-opacity:1;stroke:none"
       xml:space="preserve"><tspan
         y="755.48077"
         x="416.69443"
         id="tspan3517"
         sodipodi:role="line"
         style="font-size:14px;line-height:1.25">0xFE000000</tspan></text>
    <path
       style="fill:none;stroke:#000000;stroke-width:0.99921262;stroke-linecap:butt;stroke-linejoin:miter;stroke-miterlimit:4;stroke-dasharray:none;stroke-opacity:1;marker-end:url(#Arrow1Mend)"
       d="m 510.06615,749.28235 h 17.71654"
       id="path3519"
       sodipodi:nodetypes="cc"
       inkscape:connector-curvature="0" />
  </g>
</svg>
